<svg xmlns="http://www.w3.org/2000/svg" xmlns:xlink="http://www.w3.org/1999/xlink" id="w3a1cw521mj4hqfns7gmuhgr" 
clip-rule="evenodd" fill-rule="evenodd" stroke-linejoin="round" stroke-miterlimit="1.5" viewBox="0 0 750 725" cursor="pointer" style="max-width:400px;display:block; margin:auto">
<path id="r97b7djmts3knnacmt23fhrc" fill="#fff" stroke="#fff" stroke-linejoin="miter" stroke-miterlimit="4" stroke-width="3.3px" d="M27.5 0c0 15.2-12.3 27.5-27.5 27.5c-15.2 0-27.5-12.3-27.5-27.5c0-15.2 12.3-27.5 27.5-27.5c15.2 0 27.5 12.3 27.5 27.5Z" transform="translate(234.1,539.8) scale(-1.37265,1.37265)"/><path id="gaejf684ecouywz3b3ydyr2j" fill="#ebebeb" fill-opacity=".2" stroke="#42505a" stroke-linejoin="miter" stroke-miterlimit="4" stroke-opacity=".2" stroke-width="3.3px" d="M27.5 0c0 15.2-12.3 27.5-27.5 27.5c-15.2 0-27.5-12.3-27.5-27.5c0-15.2 12.3-27.5 27.5-27.5c15.2 0 27.5 12.3 27.5 27.5Z" transform="translate(234.1,539.8) scale(-1.37265,1.37265)"/><path id="h5v257ypzjgpkjtdznv96pz7" d="M-14.6 205.1h219.1" fill="none" stroke="#fff" stroke-linecap="round" stroke-linejoin="miter" stroke-miterlimit="4" stroke-width="4.5px" transform="translate(229.3,352.5) rotate(-91.5) scale(-1.37265,1.37265) translate(-95.3,-205.1)"/><path id="k9pgez7wimcezsxvr6czslbq" d="M-14.6 205.1h219.1" fill="none" stroke="#42505a" stroke-linecap="round" stroke-linejoin="miter" stroke-miterlimit="4" stroke-opacity=".2" stroke-width="4.5px" transform="translate(229.3,352.5) rotate(-91.5) scale(-1.37265,1.37265) translate(-95.3,-205.1)"/><path id="rwsysf82tyh3nb6lrfb5iedp" d="M125.7 68.6h215.2" fill="none" stroke="#fff" stroke-linecap="round" stroke-linejoin="miter" stroke-miterlimit="4" stroke-width="4.5px" transform="translate(418.7,539.8) scale(-1.37265,1.37265) translate(-233.3,-68.6)"/><path id="gck38c04h8bc794ncbcs3qyp" d="M125.7 68.6h215.2" fill="none" stroke="#42505a" stroke-linecap="round" stroke-linejoin="miter" stroke-miterlimit="4" stroke-opacity=".2" stroke-width="4.5px" transform="translate(418.7,539.8) scale(-1.37265,1.37265) translate(-233.3,-68.6)"/><path id="t9ujlx2bfjcz7bul4xa5x5ya" fill="#fff" stroke="#fff" stroke-linejoin="miter" stroke-miterlimit="4" stroke-width="3.3px" d="M27.5-0.7c0 15.2-12.3 27.5-27.5 27.5c-15.2 0-27.5-12.3-27.5-27.5c0-15.2 12.3-27.5 27.5-27.5c15.2 0 27.5 12.3 27.5 27.5Z" transform="translate(224.6,165.2) scale(-1.37265,1.37265)"/><path id="ky0igsrehm11s6owhwbhqmr8" fill="#ebebeb" fill-opacity=".2" stroke="#42505a" stroke-linejoin="miter" stroke-miterlimit="4" stroke-opacity=".2" stroke-width="3.3px" d="M27.5-0.7c0 15.2-12.3 27.5-27.5 27.5c-15.2 0-27.5-12.3-27.5-27.5c0-15.2 12.3-27.5 27.5-27.5c15.2 0 27.5 12.3 27.5 27.5Z" transform="translate(224.6,165.2) scale(-1.37265,1.37265)"/><path id="z8ojywlq0y98tu2ie58o2odh" fill="#fff" stroke="#fff" stroke-linejoin="miter" stroke-miterlimit="4" stroke-width="3.3px" d="M27.5 0c0 15.2-12.3 27.5-27.5 27.5c-15.2 0-27.5-12.3-27.5-27.5c0-15.2 12.3-27.5 27.5-27.5c15.2 0 27.5 12.3 27.5 27.5Z" transform="translate(603.3,539.8) scale(-1.37265,1.37265)"/><path id="t2cdpnqoozscb6dy9pdqwlob" fill="#ebebeb" fill-opacity=".2" stroke="#42505a" stroke-linejoin="miter" stroke-miterlimit="4" stroke-opacity=".2" stroke-width="3.3px" d="M27.5 0c0 15.2-12.3 27.5-27.5 27.5c-15.2 0-27.5-12.3-27.5-27.5c0-15.2 12.3-27.5 27.5-27.5c15.2 0 27.5 12.3 27.5 27.5Z" transform="translate(603.3,539.8) scale(-1.37265,1.37265)"/><path id="mop9x14db6ouce8k2or8alc0" d="M118.7 340.8h215.2" fill="none" stroke="#fff" stroke-linecap="round" stroke-linejoin="miter" stroke-miterlimit="4" stroke-width="4.5px" transform="translate(409.2,165.2) scale(1.37265,1.37265) translate(-226.3,-341.5)"/><path id="g6rsf6fu7tqvkh3a129f682g" d="M118.7 340.8h215.2" fill="none" stroke="#42505a" stroke-linecap="round" stroke-linejoin="miter" stroke-miterlimit="4" stroke-opacity=".2" stroke-width="4.5px" transform="translate(409.2,165.2) scale(1.37265,1.37265) translate(-226.3,-341.5)"/><path id="ao4pwzyieep76bjqbed0py3w" d="M255.1 205.1l219.1-0.1" fill="none" stroke="#fff" stroke-linecap="round" stroke-linejoin="miter" stroke-miterlimit="4" stroke-width="4.5px" transform="translate(598.6,352.5) rotate(88.5) scale(-1.37265,1.37265) translate(-364.3,-205.1)"/><path id="ts6m74wfhq45uuh7rhg6nkvn" d="M255.1 205.1l219.1-0.1" fill="none" stroke="#42505a" stroke-linecap="round" stroke-linejoin="miter" stroke-miterlimit="4" stroke-opacity=".21" stroke-width="4.5px" transform="translate(598.6,352.5) rotate(88.5) scale(-1.37265,1.37265) translate(-364.3,-205.1)"/><path id="tj7vlrf8cart5vp0eqbm7q05" fill="#fff" stroke="#fff" stroke-linejoin="miter" stroke-miterlimit="4" stroke-width="3.3px" d="M27.5-0.7c0 15.2-12.3 27.5-27.5 27.5c-15.2 0-27.5-12.3-27.5-27.5c0-15.2 12.3-27.5 27.5-27.5c15.2 0 27.5 12.3 27.5 27.5Z" transform="translate(593.8,165.2) scale(-1.37265,1.37265)"/><path id="nqr1cvkfxg2ig1o8ui4106us" fill="#ebebeb" fill-opacity=".25" stroke="#42505a" stroke-linejoin="miter" stroke-miterlimit="4" stroke-opacity=".25" stroke-width="3.3px" d="M27.5-0.7c0 15.2-12.3 27.5-27.5 27.5c-15.2 0-27.5-12.3-27.5-27.5c0-15.2 12.3-27.5 27.5-27.5c15.2 0 27.5 12.3 27.5 27.5Z" transform="translate(593.8,165.2) scale(-1.37265,1.37265)"/><path id="dwpymcg0rfvl5zj1i63pf0bz" d="M28.1-58.3l384.5-375.9" stroke="rgba(51,63,72,0.47)" fill="none" stroke-width="3.3" stroke-linecap="round" stroke-dasharray="12 12" transform="translate(156.2,625.8)"/><path id="zry2px6zo9vrnhfamlskoy8h" d="M44 51.8h52.8" fill="none" stroke="#fff" stroke-linecap="round" stroke-linejoin="miter" stroke-miterlimit="4" stroke-width="4.5px" transform="translate(195.2,562.8) rotate(149.4) scale(-1.37265,1.37265) translate(-70.4,-51.8)"/><path id="qwn5ihdrz61x4d4n9tjexnlb" d="M44 51.8h52.8" fill="none" stroke="#42505a" stroke-linecap="round" stroke-linejoin="miter" stroke-miterlimit="4" stroke-opacity=".37" stroke-width="4.5px" transform="translate(195.2,562.8) rotate(149.4) scale(-1.37265,1.37265) translate(-70.4,-51.8)"/><path id="kynwn0stn71a3h4w4o564erz" d="M36.7 324.1h52.7" fill="none" stroke="#fff" stroke-linecap="round" stroke-linejoin="miter" stroke-miterlimit="4" stroke-width="4.5px" transform="translate(185.6,188.2) rotate(-30.6) scale(-1.37265,1.37265) translate(-63.4,-324.8)"/><path id="w2p5sah28xoiefje1rjz2xsl" d="M36.7 324.1h52.7" fill="none" stroke="#42505a" stroke-linecap="round" stroke-linejoin="miter" stroke-miterlimit="4" stroke-opacity=".47" stroke-width="4.5px" transform="translate(185.6,188.2) rotate(-30.6) scale(-1.37265,1.37265) translate(-63.4,-324.8)"/><path id="kswew4pmjz6kd7fr9v2d5i46" d="M313 51.8h52.8" fill="none" stroke="#fff" stroke-linecap="round" stroke-linejoin="miter" stroke-miterlimit="4" stroke-width="4.5px" transform="translate(564.4,562.8) rotate(149.4) scale(-1.37265,1.37265) translate(-339.4,-51.8)"/><path id="daq9b0njpt462wia1o35cbqo" d="M313 51.8h52.8" fill="none" stroke="#42505a" stroke-linecap="round" stroke-linejoin="miter" stroke-miterlimit="4" stroke-opacity=".53" stroke-width="4.5px" transform="translate(564.4,562.8) rotate(149.4) scale(-1.37265,1.37265) translate(-339.4,-51.8)"/><path id="bewllnoq8rjhheikjzds2l46" d="M306.4 325.4h52.8" fill="none" stroke="#fff" stroke-linecap="round" stroke-linejoin="miter" stroke-miterlimit="4" stroke-width="4.5px" transform="translate(554.8,188.2) rotate(149.4) scale(-1.37265,1.37265) translate(-332.4,-324.8)"/><path id="wqhujextdw7ct9kbou88k7y9" d="M306.4 325.4h52.8" fill="none" stroke="#42505a" stroke-linecap="round" stroke-linejoin="miter" stroke-miterlimit="4" stroke-opacity=".63" stroke-width="4.5px" transform="translate(554.8,188.2) rotate(149.4) scale(-1.37265,1.37265) translate(-332.4,-324.8)"/><path id="ak2tezni6ydahoif21oawbnx" fill="#fff" stroke="#fff" stroke-linejoin="miter" stroke-miterlimit="4" stroke-width="3.3px" d="M27.5 0c0 15.2-12.3 27.5-27.5 27.5c-15.2 0-27.5-12.3-27.5-27.5c0-15.2 12.3-27.5 27.5-27.5c15.2 0 27.5 12.3 27.5 27.5Z" transform="translate(156.2,585.8) scale(-1.37265,1.37265)"/><path id="tgnsh9odjfgs83ygj1zx0r0n" fill="#ebebeb" fill-opacity=".75" stroke="#42505a" stroke-linejoin="miter" stroke-miterlimit="4" stroke-opacity=".75" stroke-width="3.3px" d="M27.5 0c0 15.2-12.3 27.5-27.5 27.5c-15.2 0-27.5-12.3-27.5-27.5c0-15.2 12.3-27.5 27.5-27.5c15.2 0 27.5 12.3 27.5 27.5Z" transform="translate(156.2,585.8) scale(-1.37265,1.37265)"/><path id="kjvcw78mv7apjrgry3zv7wz3" d="M-70.7 171.5h219.2" fill="none" stroke="#fff" stroke-linecap="round" stroke-linejoin="miter" stroke-miterlimit="4" stroke-width="4.5px" transform="translate(151.4,398.5) rotate(88.5) skewX(0) scale(-1.37265,1.37265) translate(-38.6,-171.5)"/><path id="tmq8jeobdf2fu21ywixa5oou" d="M-70.7 171.5h219.2" fill="none" stroke="#42505a" stroke-linecap="round" stroke-linejoin="miter" stroke-miterlimit="4" stroke-opacity=".79" stroke-width="4.5px" transform="translate(151.4,398.5) rotate(88.5) skewX(0) scale(-1.37265,1.37265) translate(-38.6,-171.5)"/><path id="gl5ge8mzyaimu932w5z82t8x" d="M68.9 35.1h215.2" fill="none" stroke="#fff" stroke-linecap="round" stroke-linejoin="miter" stroke-miterlimit="4" stroke-width="4.5px" transform="translate(340.8,585.8) scale(-1.37265,1.37265) translate(-176.5,-35.1)"/><path id="nzyeimuukjzul16jdymwp1r5" d="M68.9 35.1h215.2" fill="none" stroke="#42505a" stroke-linecap="round" stroke-linejoin="miter" stroke-miterlimit="4" stroke-opacity=".83" stroke-width="4.5px" transform="translate(340.8,585.8) scale(-1.37265,1.37265) translate(-176.5,-35.1)"/><path id="g3n6ro74svj5d1bfnnpkjfuv" fill="#fff" stroke="#fff" stroke-linejoin="miter" stroke-miterlimit="4" stroke-width="3.3px" d="M27.5-0.7c0 15.2-12.3 27.5-27.5 27.5c-15.2 0-27.5-12.3-27.5-27.5c0-15.2 12.3-27.5 27.5-27.5c15.2 0 27.5 12.3 27.5 27.5Z" transform="translate(146.7,211.2) scale(-1.37265,1.37265)"/><path id="gopb5dbtcw647lc3twak1w5t" fill="#ebebeb" fill-opacity=".84" stroke="#42505a" stroke-linejoin="miter" stroke-miterlimit="4" stroke-opacity=".84" stroke-width="3.3px" d="M27.5-0.7c0 15.2-12.3 27.5-27.5 27.5c-15.2 0-27.5-12.3-27.5-27.5c0-15.2 12.3-27.5 27.5-27.5c15.2 0 27.5 12.3 27.5 27.5Z" transform="translate(146.7,211.2) scale(-1.37265,1.37265)"/><path id="gq7eri4j2ofoul8to2mdv3pr" fill="#fff" stroke="#fff" stroke-linejoin="miter" stroke-miterlimit="4" stroke-width="3.3px" d="M27.5 0c0 15.2-12.3 27.5-27.5 27.5c-15.2 0-27.5-12.3-27.5-27.5c0-15.2 12.3-27.5 27.5-27.5c15.2 0 27.5 12.3 27.5 27.5Z" transform="translate(525.4,585.8) scale(-1.37265,1.37265)"/><path id="spbp1aqp0liki8uy1jdayt4n" fill="#ebebeb" fill-opacity=".91" stroke="#42505a" stroke-linejoin="miter" stroke-miterlimit="4" stroke-opacity=".91" stroke-width="3.3px" d="M27.5 0c0 15.2-12.3 27.5-27.5 27.5c-15.2 0-27.5-12.3-27.5-27.5c0-15.2 12.3-27.5 27.5-27.5c15.2 0 27.5 12.3 27.5 27.5Z" transform="translate(525.4,585.8) scale(-1.37265,1.37265)"/><path id="krgl5qkdqitkqz2ehiubiio2" d="M62 307.3h215.2" fill="none" stroke="#fff" stroke-linecap="round" stroke-linejoin="miter" stroke-miterlimit="4" stroke-width="4.5px" transform="translate(331.3,211.2) scale(-1.37265,1.37265) translate(-169.6,-308)"/><path id="mopsfl6pib6qmymfkl5bul6z" d="M62 307.3h215.2" fill="none" stroke="#42505a" stroke-linecap="round" stroke-linejoin="miter" stroke-miterlimit="4" stroke-opacity=".92" stroke-width="4.5px" transform="translate(331.3,211.2) scale(-1.37265,1.37265) translate(-169.6,-308)"/><path id="hqyv6pfyyscy4u5x9v6p0yz8" d="M198.3 171.5h219.2" fill="none" stroke="#fff" stroke-linecap="round" stroke-linejoin="miter" stroke-miterlimit="4" stroke-width="4.5px" transform="translate(520.7,398.5) rotate(88.5) skewX(0) scale(-1.37265,1.37265) translate(-307.5,-171.5)"/><path id="lqwj42aa36djed7kzsoms67g" d="M198.3 171.5h219.2" fill="none" stroke="#42505a" stroke-linecap="round" stroke-linejoin="miter" stroke-miterlimit="4" stroke-opacity=".95" stroke-width="4.5px" transform="translate(520.7,398.5) rotate(88.5) skewX(0) scale(-1.37265,1.37265) translate(-307.5,-171.5)"/><path id="zdhqqh2i1y45y28zw3yqnts5" fill="#fff" stroke="#fff" stroke-linejoin="miter" stroke-miterlimit="4" stroke-width="3.3px" d="M27.5-0.7c0 15.2-12.3 27.5-27.5 27.5c-15.2 0-27.5-12.3-27.5-27.5c0-15.2 12.3-27.5 27.5-27.5c15.2 0 27.5 12.3 27.5 27.5Z" transform="translate(515.9,211.2) scale(-1.37265,1.37265)"/><path id="wdwq4um67ybhajbgi2ylnmpw" fill="#ebebeb" stroke="#42505a" stroke-linejoin="miter" stroke-miterlimit="4" stroke-width="3.3px" d="M27.5-0.7c0 15.2-12.3 27.5-27.5 27.5c-15.2 0-27.5-12.3-27.5-27.5c0-15.2 12.3-27.5 27.5-27.5c15.2 0 27.5 12.3 27.5 27.5Z" transform="translate(515.9,211.2) scale(-1.37265,1.37265)"/><path id="iyoyl423pynshoh0bh3nvd4x" fill="#333f48" d="M-33.1-12l4.5 1.1c-0.9 3.7-2.6 6.6-5.1 8.5c-2.5 2-5.5 3-9.1 3c-3.7 0-6.7-0.8-9-2.3c-2.4-1.5-4.1-3.7-5.3-6.5c-1.2-2.9-1.9-6-1.9-9.2c0-3.6 .7-6.7 2.1-9.4c1.4-2.7 3.3-4.7 5.8-6.1c2.6-1.4 5.3-2 8.4-2c3.4 0 6.3 .8 8.6 2.6c2.4 1.7 4 4.2 4.9 7.4l-4.4 1c-0.8-2.5-2-4.3-3.5-5.4c-1.5-1.2-3.4-1.8-5.7-1.8c-2.7 0-4.9 .7-6.6 1.9c-1.8 1.3-3.1 3-3.8 5.1c-0.7 2.2-1.1 4.4-1.1 6.6c0 3 .5 5.5 1.3 7.7c.9 2.2 2.2 3.8 4 4.9c1.8 1.1 3.7 1.6 5.8 1.6c2.6 0 4.7-0.7 6.5-2.2c1.8-1.5 3-3.7 3.6-6.5Zm25.9 12v-3.7c-1.9 2.9-4.6 4.3-7.9 4.3c-1.5 0-2.8-0.3-4.1-0.9c-1.3-0.5-2.2-1.3-2.9-2.1c-0.6-0.9-1-1.9-1.3-3.1c-0.1-0.9-0.2-2.2-0.2-4v-15.4h4.2v13.8c0 2.2 .1 3.7 .3 4.5c.2 1.1 .8 1.9 1.6 2.6c.9 .6 2 .9 3.2 .9c1.3 0 2.5-0.3 3.6-0.9c1.1-0.7 1.9-1.6 2.4-2.7c.4-1.1 .6-2.7 .6-4.9v-13.3h4.3v24.9Zm14.3 0h-4v-34.4h4.3v12.3c1.7-2.2 4-3.4 6.8-3.4c1.5 0 3 .4 4.3 1c1.4 .6 2.5 1.5 3.4 2.6c.9 1.1 1.6 2.4 2.1 4c.5 1.6 .7 3.3 .7 5.1c0 4.2-1 7.5-3.1 9.9c-2.1 2.3-4.7 3.5-7.6 3.5c-3 0-5.3-1.3-6.9-3.7Zm-0.1-12.6c0 3 .4 5.1 1.2 6.4c1.4 2.2 3.2 3.3 5.4 3.3c1.9 0 3.5-0.8 4.8-2.4c1.3-1.6 2-4 2-7.2c0-3.2-0.6-5.6-1.9-7.2c-1.3-1.5-2.9-2.3-4.7-2.3c-1.8 0-3.4 .8-4.8 2.4c-1.3 1.6-2 3.9-2 7Zm22.9-16.9v-4.9h4.2v4.9Zm0 29.5v-24.9h4.2v24.9Zm26.9-9.1l4.1 .5c-0.5 2.9-1.6 5.1-3.5 6.7c-1.8 1.7-4.1 2.5-6.9 2.5c-3.4 0-6.1-1.2-8.2-3.4c-2-2.2-3.1-5.4-3.1-9.6c0-2.6 .5-5 1.4-7c.8-2 2.2-3.5 4-4.5c1.8-1 3.8-1.6 6-1.6c2.7 0 4.9 .7 6.6 2.1c1.7 1.4 2.8 3.3 3.3 5.8l-4.1 .7c-0.4-1.7-1.1-3-2.1-3.8c-1-0.9-2.2-1.3-3.6-1.3c-2.1 0-3.8 .8-5.2 2.3c-1.3 1.5-1.9 3.9-1.9 7.2c0 3.4 .6 5.8 1.9 7.3c1.3 1.5 2.9 2.3 5 2.3c1.6 0 3-0.5 4.1-1.5c1.2-1 1.9-2.6 2.2-4.7Z" fill-rule="nonzero" visibility="visible" transform="translate(383.9,712)"/><path id="wf81vyy545j5blievjzss6up" fill="#333f48" fill-rule="nonzero" visibility="hidden" d="M-73.3 0v-30.3h-11.4v-4.1h27.3v4.1h-11.4v30.3Zm18.2 0v-24.9h3.8v3.8c.9-1.8 1.8-2.9 2.6-3.5c.9-0.6 1.8-0.9 2.7-0.9c1.5 0 2.9 .5 4.4 1.4l-1.5 3.9c-1-0.6-2-0.9-3.1-0.9c-0.9 0-1.7 .3-2.4 .8c-0.8 .6-1.3 1.4-1.6 2.3c-0.5 1.5-0.7 3.2-0.7 5v13Zm16-29.5v-4.9h4.2v4.9Zm0 29.5v-24.9h4.2v24.9Zm9.9 2.1l4.1 .6c.1 1.2 .6 2.2 1.4 2.7c1.1 .8 2.5 1.2 4.3 1.2c1.9 0 3.5-0.4 4.5-1.2c1.1-0.7 1.8-1.8 2.2-3.2c.2-0.9 .3-2.7 .3-5.5c-1.9 2.2-4.2 3.3-6.9 3.3c-3.4 0-6.1-1.2-8-3.7c-1.8-2.5-2.8-5.4-2.8-8.9c0-2.4 .5-4.6 1.3-6.6c.9-2 2.1-3.5 3.8-4.6c1.6-1.1 3.5-1.7 5.7-1.7c2.9 0 5.4 1.2 7.3 3.6v-3h3.9v21.5c0 3.9-0.4 6.6-1.2 8.3c-0.8 1.6-2.1 2.9-3.8 3.8c-1.7 .9-3.8 1.4-6.3 1.4c-3 0-5.4-0.7-7.2-2c-1.8-1.3-2.7-3.3-2.6-6Zm3.5-15c0 3.3 .6 5.7 1.9 7.2c1.3 1.5 2.9 2.2 4.9 2.2c1.9 0 3.5-0.7 4.9-2.2c1.3-1.5 1.9-3.9 1.9-7c0-3.1-0.6-5.4-2-6.9c-1.3-1.6-3-2.4-4.9-2.4c-1.9 0-3.5 .8-4.8 2.3c-1.3 1.5-1.9 3.8-1.9 6.8Zm22.4 .5c0-4.7 1.2-8.1 3.8-10.3c2.1-1.8 4.8-2.8 7.8-2.8c3.5 0 6.3 1.2 8.4 3.4c2.2 2.3 3.3 5.4 3.3 9.3c0 3.2-0.5 5.7-1.5 7.6c-0.9 1.8-2.3 3.2-4.2 4.2c-1.8 1.1-3.8 1.6-6 1.6c-3.4 0-6.3-1.2-8.4-3.4c-2.2-2.2-3.2-5.4-3.2-9.6Zm4.3 0c0 3.1 .7 5.5 2.1 7.1c1.4 1.6 3.1 2.4 5.2 2.4c2.1 0 3.9-0.8 5.3-2.4c1.4-1.6 2-4 2-7.3c0-3.1-0.7-5.4-2-7c-1.4-1.6-3.2-2.4-5.3-2.4c-2.1 0-3.8 .8-5.2 2.4c-1.4 1.6-2.1 4-2.1 7.2Zm23.9 12.4v-24.9h3.8v3.5c1.8-2.7 4.5-4.1 7.9-4.1c1.5 0 2.9 .3 4.2 .9c1.2 .5 2.2 1.2 2.8 2.1c.6 .9 1.1 1.9 1.3 3.1c.2 .8 .2 2.1 .2 4.1v15.3h-4.2v-15.1c0-1.8-0.1-3-0.5-3.9c-0.3-0.8-0.9-1.5-1.7-2c-0.8-0.5-1.8-0.8-2.9-0.8c-1.8 0-3.4 .6-4.7 1.7c-1.3 1.2-2 3.3-2 6.5v13.6Zm43-3.1c-1.6 1.4-3.1 2.3-4.6 2.8c-1.4 .6-3 .9-4.6 .9c-2.7 0-4.8-0.7-6.3-2c-1.5-1.4-2.2-3.1-2.2-5.2c0-1.2 .3-2.3 .8-3.3c.6-1 1.3-1.8 2.2-2.4c.9-0.6 1.9-1.1 3-1.4c.9-0.2 2.1-0.4 3.8-0.6c3.4-0.4 5.9-0.9 7.5-1.5c0-0.6 0-0.9 0-1.1c0-1.7-0.4-2.9-1.2-3.6c-1-1-2.7-1.5-4.8-1.5c-2 0-3.4 .4-4.4 1.1c-0.9 .7-1.6 1.9-2.1 3.7l-4.1-0.6c.4-1.8 1-3.2 1.9-4.3c.8-1.1 2.1-1.9 3.7-2.5c1.6-0.6 3.5-0.9 5.6-0.9c2.2 0 3.9 .3 5.2 .8c1.3 .5 2.3 1.1 2.9 1.9c.7 .7 1.1 1.7 1.4 2.9c.1 .7 .2 2 .2 3.8v5.7c0 3.9 .1 6.4 .2 7.4c.2 1.1 .6 2 1.1 3h-4.4c-0.4-0.9-0.7-1.9-0.8-3.1Zm-0.4-9.4c-1.5 .6-3.8 1.2-6.9 1.6c-1.7 .3-3 .5-3.7 .8c-0.7 .4-1.2 .8-1.6 1.4c-0.4 .6-0.6 1.3-0.6 2c0 1.1 .4 2.1 1.3 2.8c.8 .8 2.1 1.2 3.7 1.2c1.6 0 3.1-0.4 4.3-1.1c1.3-0.7 2.2-1.7 2.8-2.9c.5-1 .7-2.4 .7-4.2Zm10.7 12.5v-34.4h4.2v34.4Z" transform="translate(383.9,712) translate(0,0) translate(0,0)"/><script xlink:href="../../_static/keyshapejs-1.2.0.min.js"/><script><![CDATA[if(KeyshapeJS.version.indexOf('1.')!=0)throw Error('Expected KeyshapeJS v1.*.*');window.ks=document.ks=KeyshapeJS;(function(ks){
if(document.location.search.substr(1).split('&').indexOf('global=paused')>=0)ks.globalPause();})(KeyshapeJS);
(function(ks){ document.getElementById('w3a1cw521mj4hqfns7gmuhgr').addEventListener('click',function(){KeyshapeJS.removeAll();
var tl=ks.animate("#r97b7djmts3knnacmt23fhrc",[{p:'d',t:[0,1000],v:["path('M27.5,0C27.5,15.2,15.2,27.5,0,27.5C-15.2,27.5,-27.5,15.2,-27.5,0C-27.5,-15.2,-15.2,-27.5,0,-27.5C15.2,-27.5,27.5,-15.2,27.5,0Z')","path('M50.2,-3.4C50.2,11.8,37.9,24.1,22.7,24.1C7.5,24.1,-4.8,11.8,-4.8,-3.4C-4.8,-18.5,7.5,-30.9,22.7,-30.9C37.9,-30.9,50.2,-18.5,50.2,-3.4Z')"],e:[[0],[0]]}],
"#gaejf684ecouywz3b3ydyr2j",[{p:'d',t:[0,1000],v:["path('M27.5,0C27.5,15.2,15.2,27.5,0,27.5C-15.2,27.5,-27.5,15.2,-27.5,0C-27.5,-15.2,-15.2,-27.5,0,-27.5C15.2,-27.5,27.5,-15.2,27.5,0Z')","path('M50.2,-3.4C50.2,11.8,37.9,24.1,22.7,24.1C7.5,24.1,-4.8,11.8,-4.8,-3.4C-4.8,-18.5,7.5,-30.9,22.7,-30.9C37.9,-30.9,50.2,-18.5,50.2,-3.4Z')"],e:[[0],[0]]}],
"#h5v257ypzjgpkjtdznv96pz7",[{p:'d',t:[0,1000],v:["path('M-14.6,205.1L204.5,205.1')","path('M-15.7,267.4L200.6,182.4')"],e:[[0],[0]]}],
"#k9pgez7wimcezsxvr6czslbq",[{p:'d',t:[0,1000],v:["path('M-14.6,205.1L204.5,205.1')","path('M-15.7,267.4L200.6,182.4')"],e:[[0],[0]]}],
"#rwsysf82tyh3nb6lrfb5iedp",[{p:'d',t:[0,1000],v:["path('M125.7,68.6L340.9,68.6')","path('M137.9,-2.7L363.6,65.2')"],e:[[0],[0]]}],
"#gck38c04h8bc794ncbcs3qyp",[{p:'d',t:[0,1000],v:["path('M125.7,68.6L340.9,68.6')","path('M137.9,-2.7L363.6,65.2')"],e:[[0],[0]]}],
"#t9ujlx2bfjcz7bul4xa5x5ya",[{p:'d',t:[0,1000],v:["path('M27.5,-0.7C27.5,14.5,15.2,26.8,0,26.8C-15.2,26.8,-27.5,14.5,-27.5,-0.7C-27.5,-15.9,-15.2,-28.2,0,-28.2C15.2,-28.2,27.5,-15.9,27.5,-0.7Z')","path('M-34.7,-3.4C-34.7,11.8,-47.1,24.1,-62.2,24.1C-77.4,24.1,-89.8,11.8,-89.8,-3.4C-89.8,-18.5,-77.4,-30.9,-62.2,-30.9C-47.1,-30.9,-34.7,-18.5,-34.7,-3.4Z')"],e:[[0],[0]]}],
"#ky0igsrehm11s6owhwbhqmr8",[{p:'d',t:[0,1000],v:["path('M27.5,-0.7C27.5,14.5,15.2,26.8,0,26.8C-15.2,26.8,-27.5,14.5,-27.5,-0.7C-27.5,-15.9,-15.2,-28.2,0,-28.2C15.2,-28.2,27.5,-15.9,27.5,-0.7Z')","path('M-34.7,-3.4C-34.7,11.8,-47.1,24.1,-62.2,24.1C-77.4,24.1,-89.8,11.8,-89.8,-3.4C-89.8,-18.5,-77.4,-30.9,-62.2,-30.9C-47.1,-30.9,-34.7,-18.5,-34.7,-3.4Z')"],e:[[0],[0]]}],
"#z8ojywlq0y98tu2ie58o2odh",[{p:'d',t:[0,1000],v:["path('M27.5,0C27.5,15.2,15.2,27.5,0,27.5C-15.2,27.5,-27.5,15.2,-27.5,0C-27.5,-15.2,-15.2,-27.5,0,-27.5C15.2,-27.5,27.5,-15.2,27.5,0Z')","path('M39.7,-71.2C39.7,-56.1,27.4,-43.7,12.2,-43.7C-3,-43.7,-15.3,-56.1,-15.3,-71.2C-15.3,-86.4,-3,-98.7,12.2,-98.7C27.4,-98.7,39.7,-86.4,39.7,-71.2Z')"],e:[[0],[0]]}],
"#t2cdpnqoozscb6dy9pdqwlob",[{p:'d',t:[0,1000],v:["path('M27.5,0C27.5,15.2,15.2,27.5,0,27.5C-15.2,27.5,-27.5,15.2,-27.5,0C-27.5,-15.2,-15.2,-27.5,0,-27.5C15.2,-27.5,27.5,-15.2,27.5,0Z')","path('M39.7,-71.2C39.7,-56.1,27.4,-43.7,12.2,-43.7C-3,-43.7,-15.3,-56.1,-15.3,-71.2C-15.3,-86.4,-3,-98.7,12.2,-98.7C27.4,-98.7,39.7,-86.4,39.7,-71.2Z')"],e:[[0],[0]]}],
"#mop9x14db6ouce8k2or8alc0",[{p:'d',t:[0,1000],v:["path('M118.7,340.8L333.9,340.8')","path('M181,338.2L392.1,283.2')"],e:[[0],[0]]}],
"#g6rsf6fu7tqvkh3a129f682g",[{p:'d',t:[0,1000],v:["path('M118.7,340.8L333.9,340.8')","path('M181,338.2L392.1,283.2')"],e:[[0],[0]]}],
"#ao4pwzyieep76bjqbed0py3w",[{p:'d',t:[0,1000],v:["path('M255.1,205.1L474.2,205')","path('M326.6,215.4L530.3,145.4')"],e:[[0],[0]]}],
"#ts6m74wfhq45uuh7rhg6nkvn",[{p:'d',t:[0,1000],v:["path('M255.1,205.1L474.2,205')","path('M326.6,215.4L530.3,145.4')"],e:[[0],[0]]}],
"#tj7vlrf8cart5vp0eqbm7q05",[{p:'d',t:[0,1000],v:["path('M27.5,-0.7C27.5,14.5,15.2,26.8,0,26.8C-15.2,26.8,-27.5,14.5,-27.5,-0.7C-27.5,-15.9,-15.2,-28.2,0,-28.2C15.2,-28.2,27.5,-15.9,27.5,-0.7Z')","path('M-30.7,-58.3C-30.7,-43.2,-43,-30.8,-58.2,-30.8C-73.4,-30.8,-85.7,-43.2,-85.7,-58.3C-85.7,-73.5,-73.4,-85.8,-58.2,-85.8C-43,-85.8,-30.7,-73.5,-30.7,-58.3Z')"],e:[[0],[0]]}],
"#nqr1cvkfxg2ig1o8ui4106us",[{p:'d',t:[0,1000],v:["path('M27.5,-0.7C27.5,14.5,15.2,26.8,0,26.8C-15.2,26.8,-27.5,14.5,-27.5,-0.7C-27.5,-15.9,-15.2,-28.2,0,-28.2C15.2,-28.2,27.5,-15.9,27.5,-0.7Z')","path('M-30.7,-58.3C-30.7,-43.2,-43,-30.8,-58.2,-30.8C-73.4,-30.8,-85.7,-43.2,-85.7,-58.3C-85.7,-73.5,-73.4,-85.8,-58.2,-85.8C-43,-85.8,-30.7,-73.5,-30.7,-58.3Z')"],e:[[0],[0]]}],
"#dwpymcg0rfvl5zj1i63pf0bz",[{p:'d',t:[0,1000],v:["path('M28.1,-58.3L412.6,-434.2')","path('M-46.9,15.4L491.2,-510.4')"],e:[[0],[0]]}],
"#zry2px6zo9vrnhfamlskoy8h",[{p:'d',t:[0,1000],v:["path('M44,51.8L96.8,51.8')","path('M-34.6,31.3L78.9,66.3')"],e:[[0],[0]]}],
"#qwn5ihdrz61x4d4n9tjexnlb",[{p:'d',t:[0,1000],v:["path('M44,51.8L96.8,51.8')","path('M-34.6,31.3L78.9,66.3')"],e:[[0],[0]]}],
"#kynwn0stn71a3h4w4o564erz",[{p:'d',t:[0,1000],v:["path('M36.7,324.1L89.4,324.1')","path('M-18.2,353.5L119.6,388.1')"],e:[[0],[0]]}],
"#w2p5sah28xoiefje1rjz2xsl",[{p:'d',t:[0,1000],v:["path('M36.7,324.1L89.4,324.1')","path('M-18.2,353.5L119.6,388.1')"],e:[[0],[0]]}],
"#kswew4pmjz6kd7fr9v2d5i46",[{p:'d',t:[0,1000],v:["path('M313,51.8L365.8,51.8')","path('M248.1,88.1L391.5,119.4')"],e:[[0],[0]]}],
"#daq9b0njpt462wia1o35cbqo",[{p:'d',t:[0,1000],v:["path('M313,51.8L365.8,51.8')","path('M248.1,88.1L391.5,119.4')"],e:[[0],[0]]}],
"#bewllnoq8rjhheikjzds2l46",[{p:'d',t:[0,1000],v:["path('M306.4,325.4L359.2,325.4')","path('M308.2,316.2L438.6,345.4')"],e:[[0],[0]]}],
"#wqhujextdw7ct9kbou88k7y9",[{p:'d',t:[0,1000],v:["path('M306.4,325.4L359.2,325.4')","path('M308.2,316.2L438.6,345.4')"],e:[[0],[0]]}],
"#ak2tezni6ydahoif21oawbnx",[{p:'d',t:[0,1000],v:["path('M27.5,0C27.5,15.2,15.2,27.5,0,27.5C-15.2,27.5,-27.5,15.2,-27.5,0C-27.5,-15.2,-15.2,-27.5,0,-27.5C15.2,-27.5,27.5,-15.2,27.5,0Z')","path('M84.8,57.7C84.8,72.9,72.5,85.2,57.3,85.2C42.1,85.2,29.8,72.9,29.8,57.7C29.8,42.5,42.1,30.2,57.3,30.2C72.5,30.2,84.8,42.5,84.8,57.7Z')"],e:[[0],[0]]}],
"#tgnsh9odjfgs83ygj1zx0r0n",[{p:'d',t:[0,1000],v:["path('M27.5,0C27.5,15.2,15.2,27.5,0,27.5C-15.2,27.5,-27.5,15.2,-27.5,0C-27.5,-15.2,-15.2,-27.5,0,-27.5C15.2,-27.5,27.5,-15.2,27.5,0Z')","path('M84.8,57.7C84.8,72.9,72.5,85.2,57.3,85.2C42.1,85.2,29.8,72.9,29.8,57.7C29.8,42.5,42.1,30.2,57.3,30.2C72.5,30.2,84.8,42.5,84.8,57.7Z')"],e:[[0],[0]]}],
"#kjvcw78mv7apjrgry3zv7wz3",[{p:'d',t:[0,1000],v:["path('M-70.7,171.5L148.5,171.5')","path('M-126.8,230.3L77.9,166.8')"],e:[[0],[0]]}],
"#tmq8jeobdf2fu21ywixa5oou",[{p:'d',t:[0,1000],v:["path('M-70.7,171.5L148.5,171.5')","path('M-126.8,230.3L77.9,166.8')"],e:[[0],[0]]}],
"#gl5ge8mzyaimu932w5z82t8x",[{p:'d',t:[0,1000],v:["path('M68.9,35.1L284.1,35.1')","path('M143.3,36.9L341.5,92.7')"],e:[[0],[0]]}],
"#nzyeimuukjzul16jdymwp1r5",[{p:'d',t:[0,1000],v:["path('M68.9,35.1L284.1,35.1')","path('M143.3,36.9L341.5,92.7')"],e:[[0],[0]]}],
"#g3n6ro74svj5d1bfnnpkjfuv",[{p:'d',t:[0,1000],v:["path('M27.5,-0.7C27.5,14.5,15.2,26.8,0,26.8C-15.2,26.8,-27.5,14.5,-27.5,-0.7C-27.5,-15.9,-15.2,-28.2,0,-28.2C15.2,-28.2,27.5,-15.9,27.5,-0.7Z')","path('M21,69.7C21,84.9,8.7,97.2,-6.5,97.2C-21.7,97.2,-34,84.9,-34,69.7C-34,54.5,-21.7,42.2,-6.5,42.2C8.7,42.2,21,54.5,21,69.7Z')"],e:[[0],[0]]}],
"#gopb5dbtcw647lc3twak1w5t",[{p:'d',t:[0,1000],v:["path('M27.5,-0.7C27.5,14.5,15.2,26.8,0,26.8C-15.2,26.8,-27.5,14.5,-27.5,-0.7C-27.5,-15.9,-15.2,-28.2,0,-28.2C15.2,-28.2,27.5,-15.9,27.5,-0.7Z')","path('M21,69.7C21,84.9,8.7,97.2,-6.5,97.2C-21.7,97.2,-34,84.9,-34,69.7C-34,54.5,-21.7,42.2,-6.5,42.2C8.7,42.2,21,54.5,21,69.7Z')"],e:[[0],[0]]}],
"#gq7eri4j2ofoul8to2mdv3pr",[{p:'d',t:[0,1000],v:["path('M27.5,0C27.5,15.2,15.2,27.5,0,27.5C-15.2,27.5,-27.5,15.2,-27.5,0C-27.5,-15.2,-15.2,-27.5,0,-27.5C15.2,-27.5,27.5,-15.2,27.5,0Z')","path('M101.8,1.8C101.8,17,89.5,29.3,74.3,29.3C59.1,29.3,46.8,17,46.8,1.8C46.8,-13.4,59.1,-25.7,74.3,-25.7C89.5,-25.7,101.8,-13.4,101.8,1.8Z')"],e:[[0],[0]]}],
"#spbp1aqp0liki8uy1jdayt4n",[{p:'d',t:[0,1000],v:["path('M27.5,0C27.5,15.2,15.2,27.5,0,27.5C-15.2,27.5,-27.5,15.2,-27.5,0C-27.5,-15.2,-15.2,-27.5,0,-27.5C15.2,-27.5,27.5,-15.2,27.5,0Z')","path('M101.8,1.8C101.8,17,89.5,29.3,74.3,29.3C59.1,29.3,46.8,17,46.8,1.8C46.8,-13.4,59.1,-25.7,74.3,-25.7C89.5,-25.7,101.8,-13.4,101.8,1.8Z')"],e:[[0],[0]]}],
"#krgl5qkdqitkqz2ehiubiio2",[{p:'d',t:[0,1000],v:["path('M62,307.3L277.2,307.3')","path('M55.8,314.3L270.6,377.7')"],e:[[0],[0]]}],
"#mopsfl6pib6qmymfkl5bul6z",[{p:'d',t:[0,1000],v:["path('M62,307.3L277.2,307.3')","path('M55.8,314.3L270.6,377.7')"],e:[[0],[0]]}],
"#hqyv6pfyyscy4u5x9v6p0yz8",[{p:'d',t:[0,1000],v:["path('M198.3,171.5L417.5,171.5')","path('M198.4,245.9L410.3,165.5')"],e:[[0],[0]]}],
"#lqwj42aa36djed7kzsoms67g",[{p:'d',t:[0,1000],v:["path('M198.3,171.5L417.5,171.5')","path('M198.4,245.9L410.3,165.5')"],e:[[0],[0]]}],
"#zdhqqh2i1y45y28zw3yqnts5",[{p:'d',t:[0,1000],v:["path('M27.5,-0.7C27.5,14.5,15.2,26.8,0,26.8C-15.2,26.8,-27.5,14.5,-27.5,-0.7C-27.5,-15.9,-15.2,-28.2,0,-28.2C15.2,-28.2,27.5,-15.9,27.5,-0.7Z')","path('M21.3,6.3C21.3,21.5,9,33.8,-6.2,33.8C-21.4,33.8,-33.7,21.5,-33.7,6.3C-33.7,-8.9,-21.4,-21.2,-6.2,-21.2C9,-21.2,21.3,-8.9,21.3,6.3Z')"],e:[[0],[0]]}],
"#wdwq4um67ybhajbgi2ylnmpw",[{p:'d',t:[0,1000],v:["path('M27.5,-0.7C27.5,14.5,15.2,26.8,0,26.8C-15.2,26.8,-27.5,14.5,-27.5,-0.7C-27.5,-15.9,-15.2,-28.2,0,-28.2C15.2,-28.2,27.5,-15.9,27.5,-0.7Z')","path('M21.3,6.3C21.3,21.5,9,33.8,-6.2,33.8C-21.4,33.8,-33.7,21.5,-33.7,6.3C-33.7,-8.9,-21.4,-21.2,-6.2,-21.2C9,-21.2,21.3,-8.9,21.3,6.3Z')"],e:[[0],[0]]}],
"#iyoyl423pynshoh0bh3nvd4x",[{p:'visibility',t:[0,500],v:['visible','hidden'],e:[[3,1],[3,1]],fill:[2,'hidden']},{p:'opacity',t:[0,500],v:[1,0],e:[[0],[0]]}],
"#wf81vyy545j5blievjzss6up",[{p:'mpath',t:[0,1000],v:['0%','0%'],e:[[0],[0]],mp:"M383.9,712L383.9,712"},{p:'visibility',t:[0,500],v:['hidden','visible'],e:[[3,1],[3,1]],fill:[2,'hidden']},{p:'opacity',t:[0,500,1000,2000],v:[1,0,1,1],e:[[0],[0],[0],[0]]}],
{autoremove:false,autoplay:false}).range(0,1000);
ks.timelines()[0].play(0)},false);
 })(KeyshapeJS)]]></script></svg>