<?xml version="1.0" encoding="UTF-8" standalone="no"?>
<!DOCTYPE svg PUBLIC "-//W3C//DTD SVG 1.1//EN" "http://www.w3.org/Graphics/SVG/1.1/DTD/svg11.dtd">
<svg width="100%" height="100%" viewBox="0 0 2635 1924" version="1.1" xmlns="http://www.w3.org/2000/svg" xmlns:xlink="http://www.w3.org/1999/xlink" xml:space="preserve" xmlns:serif="http://www.serif.com/" style="fill-rule:evenodd;clip-rule:evenodd;stroke-linejoin:round;stroke-miterlimit:1.5;">
    <g transform="matrix(1,0,0,1,-1492.35,-1426.6)">
        <g transform="matrix(1.94348,0,0,1.6527,-1416.84,-961.522)">
            <rect id="miller-planes-3d" x="1496.9" y="1444.99" width="1355.35" height="1163.57" style="fill:none;"/>
            <g id="miller-planes-3d1" serif:id="miller-planes-3d">
                <g transform="matrix(0.514542,0,0,0.605072,1026.37,493.61)">
                    <rect x="2398.63" y="1666.13" width="359.358" height="359.661" style="fill:#c38a5b;fill-opacity:0.5;"/>
                </g>
                <g transform="matrix(0.514542,0,0,0.605072,1349.14,493.61)">
                    <path d="M2398.63,2025.79l-126.179,127.684l357.199,0.654l128.337,-128.338l-359.357,-0Z" style="fill:#c38a5b;fill-opacity:0.5;"/>
                </g>
                <g transform="matrix(0.514542,0,0,0.605072,1349.14,425.436)">
                    <path d="M2398.63,2025.79l-126.179,127.684l357.199,0.654l128.337,-128.338l-359.357,-0Z" style="fill:#c38a5b;fill-opacity:0.5;"/>
                </g>
                <g transform="matrix(0.514542,0,0,0.605072,1349.14,358.846)">
                    <path d="M2398.63,2025.79l-126.179,127.684l357.199,0.654l128.337,-128.338l-359.357,-0Z" style="fill:#c38a5b;fill-opacity:0.5;"/>
                </g>
                <g transform="matrix(0.514542,0,0,0.605072,1349.14,274.914)">
                    <path d="M2398.63,2025.79l-126.179,127.684l357.199,0.654l128.337,-128.338l-359.357,-0Z" style="fill:#c38a5b;fill-opacity:0.5;"/>
                </g>
                <g transform="matrix(0.514542,0,0,0.605072,993.259,532.548)">
                    <rect x="2398.63" y="1666.13" width="359.358" height="359.661" style="fill:#c38a5b;fill-opacity:0.5;"/>
                </g>
                <g transform="matrix(0.514542,0,0,0.605072,960.673,570.868)">
                    <rect x="2398.63" y="1666.13" width="359.358" height="359.661" style="fill:#c38a5b;fill-opacity:0.5;"/>
                </g>
                <g transform="matrix(0.514542,0,0,0.605072,715.375,535.317)">
                    <g>
                        <g transform="matrix(1,0,0,1,198.024,2.29086)">
                            <rect x="1578.96" y="1594.9" width="359.661" height="359.661" style="fill:none;stroke:#5f5f5f;stroke-width:6.25px;"/>
                        </g>
                        <g transform="matrix(1,0,0,1,841.11,1244.21)">
                            <rect x="1578.96" y="1594.9" width="359.661" height="359.661" style="fill:none;stroke:#5f5f5f;stroke-width:6.25px;"/>
                        </g>
                        <g transform="matrix(1,0,0,1,1427.42,1244.21)">
                            <rect x="1578.96" y="1594.9" width="359.661" height="359.661" style="fill:none;stroke:#5f5f5f;stroke-width:6.25px;"/>
                        </g>
                        <g transform="matrix(1,0,0,1,2053.67,1244.21)">
                            <rect x="1578.96" y="1594.9" width="359.661" height="359.661" style="fill:none;stroke:#5f5f5f;stroke-width:6.25px;"/>
                        </g>
                        <g transform="matrix(1,0,0,1,841.332,2.29086)">
                            <rect x="1578.96" y="1594.9" width="359.661" height="359.661" style="fill:none;stroke:#5f5f5f;stroke-width:6.25px;"/>
                        </g>
                        <g transform="matrix(1,0,0,1,841.332,601.7)">
                            <rect x="1578.96" y="1594.9" width="359.661" height="359.661" style="fill:none;stroke:#5f5f5f;stroke-width:6.25px;"/>
                        </g>
                        <g transform="matrix(1,0,0,1,1424.48,601.7)">
                            <rect x="1578.96" y="1594.9" width="359.661" height="359.661" style="fill:none;stroke:#5f5f5f;stroke-width:6.25px;"/>
                        </g>
                        <g transform="matrix(1,0,0,1,2049.95,601.7)">
                            <rect x="1578.96" y="1594.9" width="359.661" height="359.661" style="fill:none;stroke:#5f5f5f;stroke-width:6.25px;"/>
                        </g>
                        <g transform="matrix(1,0,0,1,1423.78,2.29086)">
                            <rect x="1578.96" y="1594.9" width="359.661" height="359.661" style="fill:none;stroke:#5f5f5f;stroke-width:6.25px;"/>
                        </g>
                        <g transform="matrix(1,0,0,1,2051.08,2.29086)">
                            <rect x="1578.96" y="1594.9" width="359.661" height="359.661" style="fill:none;stroke:#5f5f5f;stroke-width:6.25px;"/>
                        </g>
                        <g transform="matrix(1,0,0,1,0.895825,0.986582)">
                            <path d="M1647.75,1724.55l128.338,-128.338" style="fill:none;stroke:#505050;stroke-width:6.25px;"/>
                        </g>
                        <g transform="matrix(1,0,0,1,643.982,1242.91)">
                            <path d="M1647.75,1724.55l128.338,-128.338" style="fill:none;stroke:#505050;stroke-width:6.25px;"/>
                        </g>
                        <g transform="matrix(1,0,0,1,1230.29,1242.91)">
                            <path d="M1647.75,1724.55l128.338,-128.338" style="fill:none;stroke:#505050;stroke-width:6.25px;"/>
                        </g>
                        <g transform="matrix(1,0,0,1,1856.54,1242.91)">
                            <path d="M1647.75,1724.55l128.338,-128.338" style="fill:none;stroke:#505050;stroke-width:6.25px;"/>
                        </g>
                        <g transform="matrix(1,0,0,1,644.204,0.986582)">
                            <path d="M1647.75,1724.55l128.338,-128.338" style="fill:none;stroke:#505050;stroke-width:6.25px;"/>
                        </g>
                        <g transform="matrix(1,0,0,1,644.204,600.396)">
                            <path d="M1647.75,1724.55l128.338,-128.338" style="fill:none;stroke:#505050;stroke-width:6.25px;"/>
                        </g>
                        <g transform="matrix(1,0,0,1,1227.35,600.396)">
                            <path d="M1647.75,1724.55l128.338,-128.338" style="fill:none;stroke:#505050;stroke-width:6.25px;"/>
                        </g>
                        <g transform="matrix(1,0,0,1,1852.82,600.396)">
                            <path d="M1647.75,1724.55l128.338,-128.338" style="fill:none;stroke:#505050;stroke-width:6.25px;"/>
                        </g>
                        <g transform="matrix(1,0,0,1,1226.65,0.986582)">
                            <path d="M1647.75,1724.55l128.338,-128.338" style="fill:none;stroke:#505050;stroke-width:6.25px;"/>
                        </g>
                        <g transform="matrix(1,0,0,1,1853.95,0.986582)">
                            <path d="M1647.75,1724.55l128.338,-128.338" style="fill:none;stroke:#505050;stroke-width:6.25px;"/>
                        </g>
                        <g transform="matrix(1,0,0,1,0.895825,0.986582)">
                            <path d="M2007.41,1724.55l128.338,-128.338" style="fill:none;stroke:#505050;stroke-width:6.25px;"/>
                        </g>
                        <g transform="matrix(1,0,0,1,643.982,1242.91)">
                            <path d="M2007.41,1724.55l128.338,-128.338" style="fill:none;stroke:#505050;stroke-width:6.25px;"/>
                        </g>
                        <g transform="matrix(1,0,0,1,1230.29,1242.91)">
                            <path d="M2007.41,1724.55l128.338,-128.338" style="fill:none;stroke:#505050;stroke-width:6.25px;"/>
                        </g>
                        <g transform="matrix(1,0,0,1,1856.54,1242.91)">
                            <path d="M2007.41,1724.55l128.338,-128.338" style="fill:none;stroke:#505050;stroke-width:6.25px;"/>
                        </g>
                        <g transform="matrix(1,0,0,1,644.204,0.986582)">
                            <path d="M2007.41,1724.55l128.338,-128.338" style="fill:none;stroke:#505050;stroke-width:6.25px;"/>
                        </g>
                        <g transform="matrix(1,0,0,1,644.204,600.396)">
                            <path d="M2007.41,1724.55l128.338,-128.338" style="fill:none;stroke:#505050;stroke-width:6.25px;"/>
                        </g>
                        <g transform="matrix(1,0,0,1,1227.35,600.396)">
                            <path d="M2007.41,1724.55l128.338,-128.338" style="fill:none;stroke:#505050;stroke-width:6.25px;"/>
                        </g>
                        <g transform="matrix(1,0,0,1,1852.82,600.396)">
                            <path d="M2007.41,1724.55l128.338,-128.338" style="fill:none;stroke:#505050;stroke-width:6.25px;"/>
                        </g>
                        <g transform="matrix(1,0,0,1,1226.65,0.986582)">
                            <path d="M2007.41,1724.55l128.338,-128.338" style="fill:none;stroke:#505050;stroke-width:6.25px;"/>
                        </g>
                        <g transform="matrix(1,0,0,1,1853.95,0.986582)">
                            <path d="M2007.41,1724.55l128.338,-128.338" style="fill:none;stroke:#505050;stroke-width:6.25px;"/>
                        </g>
                        <g transform="matrix(1,0,0,1,0.895825,0.986582)">
                            <path d="M2135.75,1955.87l-128.338,128.338" style="fill:none;stroke:#505050;stroke-width:6.25px;"/>
                        </g>
                        <g transform="matrix(1,0,0,1,643.982,1242.91)">
                            <path d="M2135.75,1955.87l-128.338,128.338" style="fill:none;stroke:#505050;stroke-width:6.25px;"/>
                        </g>
                        <g transform="matrix(1,0,0,1,1230.29,1242.91)">
                            <path d="M2135.75,1955.87l-128.338,128.338" style="fill:none;stroke:#505050;stroke-width:6.25px;"/>
                        </g>
                        <g transform="matrix(1,0,0,1,1856.54,1242.91)">
                            <path d="M2135.75,1955.87l-128.338,128.338" style="fill:none;stroke:#505050;stroke-width:6.25px;"/>
                        </g>
                        <g transform="matrix(1,0,0,1,644.204,0.986582)">
                            <path d="M2135.75,1955.87l-128.338,128.338" style="fill:none;stroke:#505050;stroke-width:6.25px;"/>
                        </g>
                        <g transform="matrix(1,0,0,1,644.204,600.396)">
                            <path d="M2135.75,1955.87l-128.338,128.338" style="fill:none;stroke:#505050;stroke-width:6.25px;"/>
                        </g>
                        <g transform="matrix(1,0,0,1,1227.35,600.396)">
                            <path d="M2135.75,1955.87l-128.338,128.338" style="fill:none;stroke:#505050;stroke-width:6.25px;"/>
                        </g>
                        <g transform="matrix(1,0,0,1,1852.82,600.396)">
                            <path d="M2135.75,1955.87l-128.338,128.338" style="fill:none;stroke:#505050;stroke-width:6.25px;"/>
                        </g>
                        <g transform="matrix(1,0,0,1,1226.65,0.986582)">
                            <path d="M2135.75,1955.87l-128.338,128.338" style="fill:none;stroke:#505050;stroke-width:6.25px;"/>
                        </g>
                        <g transform="matrix(1,0,0,1,1853.95,0.986582)">
                            <path d="M2135.75,1955.87l-128.338,128.338" style="fill:none;stroke:#505050;stroke-width:6.25px;"/>
                        </g>
                        <g transform="matrix(1,0,0,1,0.895825,0.986582)">
                            <path d="M1647.75,2084.21l128.338,-128.338" style="fill:none;stroke:#505050;stroke-width:6.25px;"/>
                        </g>
                        <g transform="matrix(1,0,0,1,643.982,1242.91)">
                            <path d="M1647.75,2084.21l128.338,-128.338" style="fill:none;stroke:#505050;stroke-width:6.25px;"/>
                        </g>
                        <g transform="matrix(1,0,0,1,1230.29,1242.91)">
                            <path d="M1647.75,2084.21l128.338,-128.338" style="fill:none;stroke:#505050;stroke-width:6.25px;"/>
                        </g>
                        <g transform="matrix(1,0,0,1,1856.54,1242.91)">
                            <path d="M1647.75,2084.21l128.338,-128.338" style="fill:none;stroke:#505050;stroke-width:6.25px;"/>
                        </g>
                        <g transform="matrix(1,0,0,1,644.204,0.986582)">
                            <path d="M1647.75,2084.21l128.338,-128.338" style="fill:none;stroke:#505050;stroke-width:6.25px;"/>
                        </g>
                        <g transform="matrix(1,0,0,1,644.204,600.396)">
                            <path d="M1647.75,2084.21l128.338,-128.338" style="fill:none;stroke:#505050;stroke-width:6.25px;"/>
                        </g>
                        <g transform="matrix(1,0,0,1,1227.35,600.396)">
                            <path d="M1647.75,2084.21l128.338,-128.338" style="fill:none;stroke:#505050;stroke-width:6.25px;"/>
                        </g>
                        <g transform="matrix(1,0,0,1,1852.82,600.396)">
                            <path d="M1647.75,2084.21l128.338,-128.338" style="fill:none;stroke:#505050;stroke-width:6.25px;"/>
                        </g>
                        <g transform="matrix(1,0,0,1,1226.65,0.986582)">
                            <path d="M1647.75,2084.21l128.338,-128.338" style="fill:none;stroke:#505050;stroke-width:6.25px;"/>
                        </g>
                        <g transform="matrix(1,0,0,1,1853.95,0.986582)">
                            <path d="M1647.75,2084.21l128.338,-128.338" style="fill:none;stroke:#505050;stroke-width:6.25px;"/>
                        </g>
                        <g transform="matrix(1,0,0,1,69.6862,130.629)">
                            <rect x="1578.96" y="1594.9" width="359.661" height="359.661" style="fill:none;stroke:#000;stroke-width:6.25px;"/>
                        </g>
                        <g transform="matrix(1,0,0,1,712.772,1372.55)">
                            <rect x="1578.96" y="1594.9" width="359.661" height="359.661" style="fill:none;stroke:#000;stroke-width:6.25px;"/>
                        </g>
                        <g transform="matrix(1,0,0,1,1299.08,1372.55)">
                            <rect x="1578.96" y="1594.9" width="359.661" height="359.661" style="fill:none;stroke:#000;stroke-width:6.25px;"/>
                        </g>
                        <g transform="matrix(1,0,0,1,1925.33,1372.55)">
                            <rect x="1578.96" y="1594.9" width="359.661" height="359.661" style="fill:none;stroke:#000;stroke-width:6.25px;"/>
                        </g>
                        <g transform="matrix(1,0,0,1,712.995,130.629)">
                            <rect x="1578.96" y="1594.9" width="359.661" height="359.661" style="fill:none;stroke:#000;stroke-width:6.25px;"/>
                        </g>
                        <g transform="matrix(1,0,0,1,712.995,730.038)">
                            <rect x="1578.96" y="1594.9" width="359.661" height="359.661" style="fill:none;stroke:#000;stroke-width:6.25px;"/>
                        </g>
                        <g transform="matrix(1,0,0,1,1296.14,730.038)">
                            <rect x="1578.96" y="1594.9" width="359.661" height="359.661" style="fill:none;stroke:#000;stroke-width:6.25px;"/>
                        </g>
                        <g transform="matrix(1,0,0,1,1921.61,730.038)">
                            <rect x="1578.96" y="1594.9" width="359.661" height="359.661" style="fill:none;stroke:#000;stroke-width:6.25px;"/>
                        </g>
                        <g transform="matrix(1,0,0,1,1295.44,130.629)">
                            <rect x="1578.96" y="1594.9" width="359.661" height="359.661" style="fill:none;stroke:#000;stroke-width:6.25px;"/>
                        </g>
                        <g transform="matrix(1,0,0,1,1922.74,130.629)">
                            <rect x="1578.96" y="1594.9" width="359.661" height="359.661" style="fill:none;stroke:#000;stroke-width:6.25px;"/>
                        </g>
                        <g transform="matrix(1,0,0,1,-42.3853,-222.097)">
                            <g transform="matrix(50,0,0,50,1768.96,2187.85)">
                                <path d="M0.386,-0.671c0.106,-0.004 0.191,0.026 0.257,0.092c0.066,0.065 0.099,0.147 0.099,0.246c0,0.083 -0.024,0.157 -0.074,0.221c-0.065,0.085 -0.157,0.127 -0.275,0.127c-0.12,0 -0.212,-0.04 -0.277,-0.121c-0.051,-0.064 -0.077,-0.139 -0.077,-0.227c0,-0.098 0.034,-0.18 0.1,-0.246c0.067,-0.065 0.15,-0.096 0.247,-0.092Zm0.006,0.031c-0.06,-0 -0.107,0.031 -0.138,0.093c-0.026,0.05 -0.039,0.123 -0.039,0.218c0,0.113 0.02,0.197 0.06,0.251c0.028,0.038 0.066,0.057 0.116,0.057c0.034,-0 0.062,-0.009 0.084,-0.025c0.029,-0.021 0.051,-0.054 0.067,-0.1c0.016,-0.045 0.024,-0.105 0.024,-0.179c-0,-0.087 -0.008,-0.153 -0.024,-0.196c-0.017,-0.044 -0.038,-0.074 -0.063,-0.092c-0.025,-0.018 -0.054,-0.027 -0.087,-0.027Z" style="fill:#686868;fill-rule:nonzero;"/>
                            </g>
                        </g>
                        <g transform="matrix(1,0,0,1,600.7,1019.82)">
                            <g transform="matrix(50,0,0,50,1768.96,2187.85)">
                                <path d="M0.386,-0.671c0.106,-0.004 0.191,0.026 0.257,0.092c0.066,0.065 0.099,0.147 0.099,0.246c0,0.083 -0.024,0.157 -0.074,0.221c-0.065,0.085 -0.157,0.127 -0.275,0.127c-0.12,0 -0.212,-0.04 -0.277,-0.121c-0.051,-0.064 -0.077,-0.139 -0.077,-0.227c0,-0.098 0.034,-0.18 0.1,-0.246c0.067,-0.065 0.15,-0.096 0.247,-0.092Zm0.006,0.031c-0.06,-0 -0.107,0.031 -0.138,0.093c-0.026,0.05 -0.039,0.123 -0.039,0.218c0,0.113 0.02,0.197 0.06,0.251c0.028,0.038 0.066,0.057 0.116,0.057c0.034,-0 0.062,-0.009 0.084,-0.025c0.029,-0.021 0.051,-0.054 0.067,-0.1c0.016,-0.045 0.024,-0.105 0.024,-0.179c-0,-0.087 -0.008,-0.153 -0.024,-0.196c-0.017,-0.044 -0.038,-0.074 -0.063,-0.092c-0.025,-0.018 -0.054,-0.027 -0.087,-0.027Z" style="fill:#686868;fill-rule:nonzero;"/>
                            </g>
                        </g>
                        <g transform="matrix(1,0,0,1,1187.01,1019.82)">
                            <g transform="matrix(50,0,0,50,1768.96,2187.85)">
                                <path d="M0.386,-0.671c0.106,-0.004 0.191,0.026 0.257,0.092c0.066,0.065 0.099,0.147 0.099,0.246c0,0.083 -0.024,0.157 -0.074,0.221c-0.065,0.085 -0.157,0.127 -0.275,0.127c-0.12,0 -0.212,-0.04 -0.277,-0.121c-0.051,-0.064 -0.077,-0.139 -0.077,-0.227c0,-0.098 0.034,-0.18 0.1,-0.246c0.067,-0.065 0.15,-0.096 0.247,-0.092Zm0.006,0.031c-0.06,-0 -0.107,0.031 -0.138,0.093c-0.026,0.05 -0.039,0.123 -0.039,0.218c0,0.113 0.02,0.197 0.06,0.251c0.028,0.038 0.066,0.057 0.116,0.057c0.034,-0 0.062,-0.009 0.084,-0.025c0.029,-0.021 0.051,-0.054 0.067,-0.1c0.016,-0.045 0.024,-0.105 0.024,-0.179c-0,-0.087 -0.008,-0.153 -0.024,-0.196c-0.017,-0.044 -0.038,-0.074 -0.063,-0.092c-0.025,-0.018 -0.054,-0.027 -0.087,-0.027Z" style="fill:#686868;fill-rule:nonzero;"/>
                            </g>
                        </g>
                        <g transform="matrix(1,0,0,1,1813.26,1019.82)">
                            <g transform="matrix(50,0,0,50,1768.96,2187.85)">
                                <path d="M0.386,-0.671c0.106,-0.004 0.191,0.026 0.257,0.092c0.066,0.065 0.099,0.147 0.099,0.246c0,0.083 -0.024,0.157 -0.074,0.221c-0.065,0.085 -0.157,0.127 -0.275,0.127c-0.12,0 -0.212,-0.04 -0.277,-0.121c-0.051,-0.064 -0.077,-0.139 -0.077,-0.227c0,-0.098 0.034,-0.18 0.1,-0.246c0.067,-0.065 0.15,-0.096 0.247,-0.092Zm0.006,0.031c-0.06,-0 -0.107,0.031 -0.138,0.093c-0.026,0.05 -0.039,0.123 -0.039,0.218c0,0.113 0.02,0.197 0.06,0.251c0.028,0.038 0.066,0.057 0.116,0.057c0.034,-0 0.062,-0.009 0.084,-0.025c0.029,-0.021 0.051,-0.054 0.067,-0.1c0.016,-0.045 0.024,-0.105 0.024,-0.179c-0,-0.087 -0.008,-0.153 -0.024,-0.196c-0.017,-0.044 -0.038,-0.074 -0.063,-0.092c-0.025,-0.018 -0.054,-0.027 -0.087,-0.027Z" style="fill:#686868;fill-rule:nonzero;"/>
                            </g>
                        </g>
                        <g transform="matrix(1,0,0,1,600.923,-222.097)">
                            <g transform="matrix(50,0,0,50,1768.96,2187.85)">
                                <path d="M0.386,-0.671c0.106,-0.004 0.191,0.026 0.257,0.092c0.066,0.065 0.099,0.147 0.099,0.246c0,0.083 -0.024,0.157 -0.074,0.221c-0.065,0.085 -0.157,0.127 -0.275,0.127c-0.12,0 -0.212,-0.04 -0.277,-0.121c-0.051,-0.064 -0.077,-0.139 -0.077,-0.227c0,-0.098 0.034,-0.18 0.1,-0.246c0.067,-0.065 0.15,-0.096 0.247,-0.092Zm0.006,0.031c-0.06,-0 -0.107,0.031 -0.138,0.093c-0.026,0.05 -0.039,0.123 -0.039,0.218c0,0.113 0.02,0.197 0.06,0.251c0.028,0.038 0.066,0.057 0.116,0.057c0.034,-0 0.062,-0.009 0.084,-0.025c0.029,-0.021 0.051,-0.054 0.067,-0.1c0.016,-0.045 0.024,-0.105 0.024,-0.179c-0,-0.087 -0.008,-0.153 -0.024,-0.196c-0.017,-0.044 -0.038,-0.074 -0.063,-0.092c-0.025,-0.018 -0.054,-0.027 -0.087,-0.027Z" style="fill:#686868;fill-rule:nonzero;"/>
                            </g>
                        </g>
                        <g transform="matrix(1,0,0,1,600.923,377.312)">
                            <g transform="matrix(50,0,0,50,1768.96,2187.85)">
                                <path d="M0.386,-0.671c0.106,-0.004 0.191,0.026 0.257,0.092c0.066,0.065 0.099,0.147 0.099,0.246c0,0.083 -0.024,0.157 -0.074,0.221c-0.065,0.085 -0.157,0.127 -0.275,0.127c-0.12,0 -0.212,-0.04 -0.277,-0.121c-0.051,-0.064 -0.077,-0.139 -0.077,-0.227c0,-0.098 0.034,-0.18 0.1,-0.246c0.067,-0.065 0.15,-0.096 0.247,-0.092Zm0.006,0.031c-0.06,-0 -0.107,0.031 -0.138,0.093c-0.026,0.05 -0.039,0.123 -0.039,0.218c0,0.113 0.02,0.197 0.06,0.251c0.028,0.038 0.066,0.057 0.116,0.057c0.034,-0 0.062,-0.009 0.084,-0.025c0.029,-0.021 0.051,-0.054 0.067,-0.1c0.016,-0.045 0.024,-0.105 0.024,-0.179c-0,-0.087 -0.008,-0.153 -0.024,-0.196c-0.017,-0.044 -0.038,-0.074 -0.063,-0.092c-0.025,-0.018 -0.054,-0.027 -0.087,-0.027Z" style="fill:#686868;fill-rule:nonzero;"/>
                            </g>
                        </g>
                        <g transform="matrix(1,0,0,1,1184.07,377.312)">
                            <g transform="matrix(50,0,0,50,1768.96,2187.85)">
                                <path d="M0.386,-0.671c0.106,-0.004 0.191,0.026 0.257,0.092c0.066,0.065 0.099,0.147 0.099,0.246c0,0.083 -0.024,0.157 -0.074,0.221c-0.065,0.085 -0.157,0.127 -0.275,0.127c-0.12,0 -0.212,-0.04 -0.277,-0.121c-0.051,-0.064 -0.077,-0.139 -0.077,-0.227c0,-0.098 0.034,-0.18 0.1,-0.246c0.067,-0.065 0.15,-0.096 0.247,-0.092Zm0.006,0.031c-0.06,-0 -0.107,0.031 -0.138,0.093c-0.026,0.05 -0.039,0.123 -0.039,0.218c0,0.113 0.02,0.197 0.06,0.251c0.028,0.038 0.066,0.057 0.116,0.057c0.034,-0 0.062,-0.009 0.084,-0.025c0.029,-0.021 0.051,-0.054 0.067,-0.1c0.016,-0.045 0.024,-0.105 0.024,-0.179c-0,-0.087 -0.008,-0.153 -0.024,-0.196c-0.017,-0.044 -0.038,-0.074 -0.063,-0.092c-0.025,-0.018 -0.054,-0.027 -0.087,-0.027Z" style="fill:#686868;fill-rule:nonzero;"/>
                            </g>
                        </g>
                        <g transform="matrix(1,0,0,1,1809.54,377.312)">
                            <g transform="matrix(50,0,0,50,1768.96,2187.85)">
                                <path d="M0.386,-0.671c0.106,-0.004 0.191,0.026 0.257,0.092c0.066,0.065 0.099,0.147 0.099,0.246c0,0.083 -0.024,0.157 -0.074,0.221c-0.065,0.085 -0.157,0.127 -0.275,0.127c-0.12,0 -0.212,-0.04 -0.277,-0.121c-0.051,-0.064 -0.077,-0.139 -0.077,-0.227c0,-0.098 0.034,-0.18 0.1,-0.246c0.067,-0.065 0.15,-0.096 0.247,-0.092Zm0.006,0.031c-0.06,-0 -0.107,0.031 -0.138,0.093c-0.026,0.05 -0.039,0.123 -0.039,0.218c0,0.113 0.02,0.197 0.06,0.251c0.028,0.038 0.066,0.057 0.116,0.057c0.034,-0 0.062,-0.009 0.084,-0.025c0.029,-0.021 0.051,-0.054 0.067,-0.1c0.016,-0.045 0.024,-0.105 0.024,-0.179c-0,-0.087 -0.008,-0.153 -0.024,-0.196c-0.017,-0.044 -0.038,-0.074 -0.063,-0.092c-0.025,-0.018 -0.054,-0.027 -0.087,-0.027Z" style="fill:#686868;fill-rule:nonzero;"/>
                            </g>
                        </g>
                        <g transform="matrix(1,0,0,1,1183.37,-222.097)">
                            <g transform="matrix(50,0,0,50,1768.96,2187.85)">
                                <path d="M0.386,-0.671c0.106,-0.004 0.191,0.026 0.257,0.092c0.066,0.065 0.099,0.147 0.099,0.246c0,0.083 -0.024,0.157 -0.074,0.221c-0.065,0.085 -0.157,0.127 -0.275,0.127c-0.12,0 -0.212,-0.04 -0.277,-0.121c-0.051,-0.064 -0.077,-0.139 -0.077,-0.227c0,-0.098 0.034,-0.18 0.1,-0.246c0.067,-0.065 0.15,-0.096 0.247,-0.092Zm0.006,0.031c-0.06,-0 -0.107,0.031 -0.138,0.093c-0.026,0.05 -0.039,0.123 -0.039,0.218c0,0.113 0.02,0.197 0.06,0.251c0.028,0.038 0.066,0.057 0.116,0.057c0.034,-0 0.062,-0.009 0.084,-0.025c0.029,-0.021 0.051,-0.054 0.067,-0.1c0.016,-0.045 0.024,-0.105 0.024,-0.179c-0,-0.087 -0.008,-0.153 -0.024,-0.196c-0.017,-0.044 -0.038,-0.074 -0.063,-0.092c-0.025,-0.018 -0.054,-0.027 -0.087,-0.027Z" style="fill:#686868;fill-rule:nonzero;"/>
                            </g>
                        </g>
                        <g transform="matrix(1,0,0,1,1810.67,-222.097)">
                            <g transform="matrix(50,0,0,50,1768.96,2187.85)">
                                <path d="M0.386,-0.671c0.106,-0.004 0.191,0.026 0.257,0.092c0.066,0.065 0.099,0.147 0.099,0.246c0,0.083 -0.024,0.157 -0.074,0.221c-0.065,0.085 -0.157,0.127 -0.275,0.127c-0.12,0 -0.212,-0.04 -0.277,-0.121c-0.051,-0.064 -0.077,-0.139 -0.077,-0.227c0,-0.098 0.034,-0.18 0.1,-0.246c0.067,-0.065 0.15,-0.096 0.247,-0.092Zm0.006,0.031c-0.06,-0 -0.107,0.031 -0.138,0.093c-0.026,0.05 -0.039,0.123 -0.039,0.218c0,0.113 0.02,0.197 0.06,0.251c0.028,0.038 0.066,0.057 0.116,0.057c0.034,-0 0.062,-0.009 0.084,-0.025c0.029,-0.021 0.051,-0.054 0.067,-0.1c0.016,-0.045 0.024,-0.105 0.024,-0.179c-0,-0.087 -0.008,-0.153 -0.024,-0.196c-0.017,-0.044 -0.038,-0.074 -0.063,-0.092c-0.025,-0.018 -0.054,-0.027 -0.087,-0.027Z" style="fill:#686868;fill-rule:nonzero;"/>
                            </g>
                        </g>
                        <g transform="matrix(1,0,0,1,-81.5908,-117.978)">
                            <g transform="matrix(50,0,0,50,1768.96,2187.85)">
                                <path d="M0.286,-0.067c-0.056,0.049 -0.106,0.073 -0.15,0.073c-0.026,0 -0.048,-0.008 -0.065,-0.025c-0.017,-0.017 -0.026,-0.039 -0.026,-0.064c-0,-0.035 0.015,-0.067 0.045,-0.094c0.03,-0.028 0.095,-0.065 0.196,-0.112l-0,-0.045c-0,-0.035 -0.002,-0.057 -0.006,-0.066c-0.004,-0.009 -0.011,-0.016 -0.021,-0.023c-0.011,-0.007 -0.022,-0.01 -0.035,-0.01c-0.022,-0 -0.039,0.005 -0.053,0.014c-0.008,0.006 -0.012,0.013 -0.012,0.021c-0,0.006 0.004,0.015 0.013,0.025c0.013,0.014 0.019,0.027 0.019,0.04c-0,0.016 -0.006,0.03 -0.018,0.041c-0.012,0.011 -0.027,0.017 -0.047,0.017c-0.02,0 -0.037,-0.006 -0.051,-0.018c-0.014,-0.013 -0.021,-0.027 -0.021,-0.044c0,-0.023 0.009,-0.046 0.028,-0.067c0.019,-0.021 0.044,-0.038 0.078,-0.049c0.033,-0.012 0.067,-0.017 0.103,-0.017c0.043,-0 0.078,0.009 0.103,0.027c0.025,0.019 0.042,0.039 0.049,0.06c0.005,0.014 0.007,0.045 0.007,0.094l-0,0.178c-0,0.021 0.001,0.034 0.002,0.039c0.002,0.005 0.004,0.009 0.008,0.012c0.003,0.003 0.007,0.004 0.011,0.004c0.008,-0 0.017,-0.006 0.026,-0.018l0.014,0.012c-0.016,0.024 -0.033,0.041 -0.05,0.052c-0.018,0.011 -0.037,0.016 -0.059,0.016c-0.027,0 -0.047,-0.006 -0.062,-0.018c-0.014,-0.012 -0.023,-0.031 -0.026,-0.055Zm-0,-0.036l-0,-0.153c-0.04,0.023 -0.069,0.048 -0.088,0.074c-0.013,0.018 -0.019,0.036 -0.019,0.054c-0,0.015 0.005,0.028 0.016,0.039c0.008,0.009 0.019,0.013 0.034,0.013c0.016,0 0.035,-0.009 0.057,-0.027Z" style="fill:#3b3b3b;fill-rule:nonzero;"/>
                            </g>
                        </g>
                        <g transform="matrix(1,0,0,1,561.495,1123.94)">
                            <g transform="matrix(50,0,0,50,1768.96,2187.85)">
                                <path d="M0.286,-0.067c-0.056,0.049 -0.106,0.073 -0.15,0.073c-0.026,0 -0.048,-0.008 -0.065,-0.025c-0.017,-0.017 -0.026,-0.039 -0.026,-0.064c-0,-0.035 0.015,-0.067 0.045,-0.094c0.03,-0.028 0.095,-0.065 0.196,-0.112l-0,-0.045c-0,-0.035 -0.002,-0.057 -0.006,-0.066c-0.004,-0.009 -0.011,-0.016 -0.021,-0.023c-0.011,-0.007 -0.022,-0.01 -0.035,-0.01c-0.022,-0 -0.039,0.005 -0.053,0.014c-0.008,0.006 -0.012,0.013 -0.012,0.021c-0,0.006 0.004,0.015 0.013,0.025c0.013,0.014 0.019,0.027 0.019,0.04c-0,0.016 -0.006,0.03 -0.018,0.041c-0.012,0.011 -0.027,0.017 -0.047,0.017c-0.02,0 -0.037,-0.006 -0.051,-0.018c-0.014,-0.013 -0.021,-0.027 -0.021,-0.044c0,-0.023 0.009,-0.046 0.028,-0.067c0.019,-0.021 0.044,-0.038 0.078,-0.049c0.033,-0.012 0.067,-0.017 0.103,-0.017c0.043,-0 0.078,0.009 0.103,0.027c0.025,0.019 0.042,0.039 0.049,0.06c0.005,0.014 0.007,0.045 0.007,0.094l-0,0.178c-0,0.021 0.001,0.034 0.002,0.039c0.002,0.005 0.004,0.009 0.008,0.012c0.003,0.003 0.007,0.004 0.011,0.004c0.008,-0 0.017,-0.006 0.026,-0.018l0.014,0.012c-0.016,0.024 -0.033,0.041 -0.05,0.052c-0.018,0.011 -0.037,0.016 -0.059,0.016c-0.027,0 -0.047,-0.006 -0.062,-0.018c-0.014,-0.012 -0.023,-0.031 -0.026,-0.055Zm-0,-0.036l-0,-0.153c-0.04,0.023 -0.069,0.048 -0.088,0.074c-0.013,0.018 -0.019,0.036 -0.019,0.054c-0,0.015 0.005,0.028 0.016,0.039c0.008,0.009 0.019,0.013 0.034,0.013c0.016,0 0.035,-0.009 0.057,-0.027Z" style="fill:#3b3b3b;fill-rule:nonzero;"/>
                            </g>
                        </g>
                        <g transform="matrix(1,0,0,1,1147.8,1123.94)">
                            <g transform="matrix(50,0,0,50,1768.96,2187.85)">
                                <path d="M0.286,-0.067c-0.056,0.049 -0.106,0.073 -0.15,0.073c-0.026,0 -0.048,-0.008 -0.065,-0.025c-0.017,-0.017 -0.026,-0.039 -0.026,-0.064c-0,-0.035 0.015,-0.067 0.045,-0.094c0.03,-0.028 0.095,-0.065 0.196,-0.112l-0,-0.045c-0,-0.035 -0.002,-0.057 -0.006,-0.066c-0.004,-0.009 -0.011,-0.016 -0.021,-0.023c-0.011,-0.007 -0.022,-0.01 -0.035,-0.01c-0.022,-0 -0.039,0.005 -0.053,0.014c-0.008,0.006 -0.012,0.013 -0.012,0.021c-0,0.006 0.004,0.015 0.013,0.025c0.013,0.014 0.019,0.027 0.019,0.04c-0,0.016 -0.006,0.03 -0.018,0.041c-0.012,0.011 -0.027,0.017 -0.047,0.017c-0.02,0 -0.037,-0.006 -0.051,-0.018c-0.014,-0.013 -0.021,-0.027 -0.021,-0.044c0,-0.023 0.009,-0.046 0.028,-0.067c0.019,-0.021 0.044,-0.038 0.078,-0.049c0.033,-0.012 0.067,-0.017 0.103,-0.017c0.043,-0 0.078,0.009 0.103,0.027c0.025,0.019 0.042,0.039 0.049,0.06c0.005,0.014 0.007,0.045 0.007,0.094l-0,0.178c-0,0.021 0.001,0.034 0.002,0.039c0.002,0.005 0.004,0.009 0.008,0.012c0.003,0.003 0.007,0.004 0.011,0.004c0.008,-0 0.017,-0.006 0.026,-0.018l0.014,0.012c-0.016,0.024 -0.033,0.041 -0.05,0.052c-0.018,0.011 -0.037,0.016 -0.059,0.016c-0.027,0 -0.047,-0.006 -0.062,-0.018c-0.014,-0.012 -0.023,-0.031 -0.026,-0.055Zm-0,-0.036l-0,-0.153c-0.04,0.023 -0.069,0.048 -0.088,0.074c-0.013,0.018 -0.019,0.036 -0.019,0.054c-0,0.015 0.005,0.028 0.016,0.039c0.008,0.009 0.019,0.013 0.034,0.013c0.016,0 0.035,-0.009 0.057,-0.027Z" style="fill:#3b3b3b;fill-rule:nonzero;"/>
                            </g>
                        </g>
                        <g transform="matrix(1,0,0,1,1774.05,1123.94)">
                            <g transform="matrix(50,0,0,50,1768.96,2187.85)">
                                <path d="M0.286,-0.067c-0.056,0.049 -0.106,0.073 -0.15,0.073c-0.026,0 -0.048,-0.008 -0.065,-0.025c-0.017,-0.017 -0.026,-0.039 -0.026,-0.064c-0,-0.035 0.015,-0.067 0.045,-0.094c0.03,-0.028 0.095,-0.065 0.196,-0.112l-0,-0.045c-0,-0.035 -0.002,-0.057 -0.006,-0.066c-0.004,-0.009 -0.011,-0.016 -0.021,-0.023c-0.011,-0.007 -0.022,-0.01 -0.035,-0.01c-0.022,-0 -0.039,0.005 -0.053,0.014c-0.008,0.006 -0.012,0.013 -0.012,0.021c-0,0.006 0.004,0.015 0.013,0.025c0.013,0.014 0.019,0.027 0.019,0.04c-0,0.016 -0.006,0.03 -0.018,0.041c-0.012,0.011 -0.027,0.017 -0.047,0.017c-0.02,0 -0.037,-0.006 -0.051,-0.018c-0.014,-0.013 -0.021,-0.027 -0.021,-0.044c0,-0.023 0.009,-0.046 0.028,-0.067c0.019,-0.021 0.044,-0.038 0.078,-0.049c0.033,-0.012 0.067,-0.017 0.103,-0.017c0.043,-0 0.078,0.009 0.103,0.027c0.025,0.019 0.042,0.039 0.049,0.06c0.005,0.014 0.007,0.045 0.007,0.094l-0,0.178c-0,0.021 0.001,0.034 0.002,0.039c0.002,0.005 0.004,0.009 0.008,0.012c0.003,0.003 0.007,0.004 0.011,0.004c0.008,-0 0.017,-0.006 0.026,-0.018l0.014,0.012c-0.016,0.024 -0.033,0.041 -0.05,0.052c-0.018,0.011 -0.037,0.016 -0.059,0.016c-0.027,0 -0.047,-0.006 -0.062,-0.018c-0.014,-0.012 -0.023,-0.031 -0.026,-0.055Zm-0,-0.036l-0,-0.153c-0.04,0.023 -0.069,0.048 -0.088,0.074c-0.013,0.018 -0.019,0.036 -0.019,0.054c-0,0.015 0.005,0.028 0.016,0.039c0.008,0.009 0.019,0.013 0.034,0.013c0.016,0 0.035,-0.009 0.057,-0.027Z" style="fill:#3b3b3b;fill-rule:nonzero;"/>
                            </g>
                        </g>
                        <g transform="matrix(1,0,0,1,561.718,-117.978)">
                            <g transform="matrix(50,0,0,50,1768.96,2187.85)">
                                <path d="M0.286,-0.067c-0.056,0.049 -0.106,0.073 -0.15,0.073c-0.026,0 -0.048,-0.008 -0.065,-0.025c-0.017,-0.017 -0.026,-0.039 -0.026,-0.064c-0,-0.035 0.015,-0.067 0.045,-0.094c0.03,-0.028 0.095,-0.065 0.196,-0.112l-0,-0.045c-0,-0.035 -0.002,-0.057 -0.006,-0.066c-0.004,-0.009 -0.011,-0.016 -0.021,-0.023c-0.011,-0.007 -0.022,-0.01 -0.035,-0.01c-0.022,-0 -0.039,0.005 -0.053,0.014c-0.008,0.006 -0.012,0.013 -0.012,0.021c-0,0.006 0.004,0.015 0.013,0.025c0.013,0.014 0.019,0.027 0.019,0.04c-0,0.016 -0.006,0.03 -0.018,0.041c-0.012,0.011 -0.027,0.017 -0.047,0.017c-0.02,0 -0.037,-0.006 -0.051,-0.018c-0.014,-0.013 -0.021,-0.027 -0.021,-0.044c0,-0.023 0.009,-0.046 0.028,-0.067c0.019,-0.021 0.044,-0.038 0.078,-0.049c0.033,-0.012 0.067,-0.017 0.103,-0.017c0.043,-0 0.078,0.009 0.103,0.027c0.025,0.019 0.042,0.039 0.049,0.06c0.005,0.014 0.007,0.045 0.007,0.094l-0,0.178c-0,0.021 0.001,0.034 0.002,0.039c0.002,0.005 0.004,0.009 0.008,0.012c0.003,0.003 0.007,0.004 0.011,0.004c0.008,-0 0.017,-0.006 0.026,-0.018l0.014,0.012c-0.016,0.024 -0.033,0.041 -0.05,0.052c-0.018,0.011 -0.037,0.016 -0.059,0.016c-0.027,0 -0.047,-0.006 -0.062,-0.018c-0.014,-0.012 -0.023,-0.031 -0.026,-0.055Zm-0,-0.036l-0,-0.153c-0.04,0.023 -0.069,0.048 -0.088,0.074c-0.013,0.018 -0.019,0.036 -0.019,0.054c-0,0.015 0.005,0.028 0.016,0.039c0.008,0.009 0.019,0.013 0.034,0.013c0.016,0 0.035,-0.009 0.057,-0.027Z" style="fill:#3b3b3b;fill-rule:nonzero;"/>
                            </g>
                        </g>
                        <g transform="matrix(1,0,0,1,561.718,481.431)">
                            <g transform="matrix(50,0,0,50,1768.96,2187.85)">
                                <path d="M0.286,-0.067c-0.056,0.049 -0.106,0.073 -0.15,0.073c-0.026,0 -0.048,-0.008 -0.065,-0.025c-0.017,-0.017 -0.026,-0.039 -0.026,-0.064c-0,-0.035 0.015,-0.067 0.045,-0.094c0.03,-0.028 0.095,-0.065 0.196,-0.112l-0,-0.045c-0,-0.035 -0.002,-0.057 -0.006,-0.066c-0.004,-0.009 -0.011,-0.016 -0.021,-0.023c-0.011,-0.007 -0.022,-0.01 -0.035,-0.01c-0.022,-0 -0.039,0.005 -0.053,0.014c-0.008,0.006 -0.012,0.013 -0.012,0.021c-0,0.006 0.004,0.015 0.013,0.025c0.013,0.014 0.019,0.027 0.019,0.04c-0,0.016 -0.006,0.03 -0.018,0.041c-0.012,0.011 -0.027,0.017 -0.047,0.017c-0.02,0 -0.037,-0.006 -0.051,-0.018c-0.014,-0.013 -0.021,-0.027 -0.021,-0.044c0,-0.023 0.009,-0.046 0.028,-0.067c0.019,-0.021 0.044,-0.038 0.078,-0.049c0.033,-0.012 0.067,-0.017 0.103,-0.017c0.043,-0 0.078,0.009 0.103,0.027c0.025,0.019 0.042,0.039 0.049,0.06c0.005,0.014 0.007,0.045 0.007,0.094l-0,0.178c-0,0.021 0.001,0.034 0.002,0.039c0.002,0.005 0.004,0.009 0.008,0.012c0.003,0.003 0.007,0.004 0.011,0.004c0.008,-0 0.017,-0.006 0.026,-0.018l0.014,0.012c-0.016,0.024 -0.033,0.041 -0.05,0.052c-0.018,0.011 -0.037,0.016 -0.059,0.016c-0.027,0 -0.047,-0.006 -0.062,-0.018c-0.014,-0.012 -0.023,-0.031 -0.026,-0.055Zm-0,-0.036l-0,-0.153c-0.04,0.023 -0.069,0.048 -0.088,0.074c-0.013,0.018 -0.019,0.036 -0.019,0.054c-0,0.015 0.005,0.028 0.016,0.039c0.008,0.009 0.019,0.013 0.034,0.013c0.016,0 0.035,-0.009 0.057,-0.027Z" style="fill:#3b3b3b;fill-rule:nonzero;"/>
                            </g>
                        </g>
                        <g transform="matrix(1,0,0,1,1148.16,481.431)">
                            <g transform="matrix(50,0,0,50,1768.96,2187.85)">
                                <path d="M0.286,-0.067c-0.056,0.049 -0.106,0.073 -0.15,0.073c-0.026,0 -0.048,-0.008 -0.065,-0.025c-0.017,-0.017 -0.026,-0.039 -0.026,-0.064c-0,-0.035 0.015,-0.067 0.045,-0.094c0.03,-0.028 0.095,-0.065 0.196,-0.112l-0,-0.045c-0,-0.035 -0.002,-0.057 -0.006,-0.066c-0.004,-0.009 -0.011,-0.016 -0.021,-0.023c-0.011,-0.007 -0.022,-0.01 -0.035,-0.01c-0.022,-0 -0.039,0.005 -0.053,0.014c-0.008,0.006 -0.012,0.013 -0.012,0.021c-0,0.006 0.004,0.015 0.013,0.025c0.013,0.014 0.019,0.027 0.019,0.04c-0,0.016 -0.006,0.03 -0.018,0.041c-0.012,0.011 -0.027,0.017 -0.047,0.017c-0.02,0 -0.037,-0.006 -0.051,-0.018c-0.014,-0.013 -0.021,-0.027 -0.021,-0.044c0,-0.023 0.009,-0.046 0.028,-0.067c0.019,-0.021 0.044,-0.038 0.078,-0.049c0.033,-0.012 0.067,-0.017 0.103,-0.017c0.043,-0 0.078,0.009 0.103,0.027c0.025,0.019 0.042,0.039 0.049,0.06c0.005,0.014 0.007,0.045 0.007,0.094l-0,0.178c-0,0.021 0.001,0.034 0.002,0.039c0.002,0.005 0.004,0.009 0.008,0.012c0.003,0.003 0.007,0.004 0.011,0.004c0.008,-0 0.017,-0.006 0.026,-0.018l0.014,0.012c-0.016,0.024 -0.033,0.041 -0.05,0.052c-0.018,0.011 -0.037,0.016 -0.059,0.016c-0.027,0 -0.047,-0.006 -0.062,-0.018c-0.014,-0.012 -0.023,-0.031 -0.026,-0.055Zm-0,-0.036l-0,-0.153c-0.04,0.023 -0.069,0.048 -0.088,0.074c-0.013,0.018 -0.019,0.036 -0.019,0.054c-0,0.015 0.005,0.028 0.016,0.039c0.008,0.009 0.019,0.013 0.034,0.013c0.016,0 0.035,-0.009 0.057,-0.027Z" style="fill:#3b3b3b;fill-rule:nonzero;"/>
                            </g>
                        </g>
                        <g transform="matrix(1,0,0,1,1776.54,481.431)">
                            <g transform="matrix(50,0,0,50,1768.96,2187.85)">
                                <path d="M0.286,-0.067c-0.056,0.049 -0.106,0.073 -0.15,0.073c-0.026,0 -0.048,-0.008 -0.065,-0.025c-0.017,-0.017 -0.026,-0.039 -0.026,-0.064c-0,-0.035 0.015,-0.067 0.045,-0.094c0.03,-0.028 0.095,-0.065 0.196,-0.112l-0,-0.045c-0,-0.035 -0.002,-0.057 -0.006,-0.066c-0.004,-0.009 -0.011,-0.016 -0.021,-0.023c-0.011,-0.007 -0.022,-0.01 -0.035,-0.01c-0.022,-0 -0.039,0.005 -0.053,0.014c-0.008,0.006 -0.012,0.013 -0.012,0.021c-0,0.006 0.004,0.015 0.013,0.025c0.013,0.014 0.019,0.027 0.019,0.04c-0,0.016 -0.006,0.03 -0.018,0.041c-0.012,0.011 -0.027,0.017 -0.047,0.017c-0.02,0 -0.037,-0.006 -0.051,-0.018c-0.014,-0.013 -0.021,-0.027 -0.021,-0.044c0,-0.023 0.009,-0.046 0.028,-0.067c0.019,-0.021 0.044,-0.038 0.078,-0.049c0.033,-0.012 0.067,-0.017 0.103,-0.017c0.043,-0 0.078,0.009 0.103,0.027c0.025,0.019 0.042,0.039 0.049,0.06c0.005,0.014 0.007,0.045 0.007,0.094l-0,0.178c-0,0.021 0.001,0.034 0.002,0.039c0.002,0.005 0.004,0.009 0.008,0.012c0.003,0.003 0.007,0.004 0.011,0.004c0.008,-0 0.017,-0.006 0.026,-0.018l0.014,0.012c-0.016,0.024 -0.033,0.041 -0.05,0.052c-0.018,0.011 -0.037,0.016 -0.059,0.016c-0.027,0 -0.047,-0.006 -0.062,-0.018c-0.014,-0.012 -0.023,-0.031 -0.026,-0.055Zm-0,-0.036l-0,-0.153c-0.04,0.023 -0.069,0.048 -0.088,0.074c-0.013,0.018 -0.019,0.036 -0.019,0.054c-0,0.015 0.005,0.028 0.016,0.039c0.008,0.009 0.019,0.013 0.034,0.013c0.016,0 0.035,-0.009 0.057,-0.027Z" style="fill:#3b3b3b;fill-rule:nonzero;"/>
                            </g>
                        </g>
                        <g transform="matrix(1,0,0,1,1144.16,-117.978)">
                            <g transform="matrix(50,0,0,50,1768.96,2187.85)">
                                <path d="M0.286,-0.067c-0.056,0.049 -0.106,0.073 -0.15,0.073c-0.026,0 -0.048,-0.008 -0.065,-0.025c-0.017,-0.017 -0.026,-0.039 -0.026,-0.064c-0,-0.035 0.015,-0.067 0.045,-0.094c0.03,-0.028 0.095,-0.065 0.196,-0.112l-0,-0.045c-0,-0.035 -0.002,-0.057 -0.006,-0.066c-0.004,-0.009 -0.011,-0.016 -0.021,-0.023c-0.011,-0.007 -0.022,-0.01 -0.035,-0.01c-0.022,-0 -0.039,0.005 -0.053,0.014c-0.008,0.006 -0.012,0.013 -0.012,0.021c-0,0.006 0.004,0.015 0.013,0.025c0.013,0.014 0.019,0.027 0.019,0.04c-0,0.016 -0.006,0.03 -0.018,0.041c-0.012,0.011 -0.027,0.017 -0.047,0.017c-0.02,0 -0.037,-0.006 -0.051,-0.018c-0.014,-0.013 -0.021,-0.027 -0.021,-0.044c0,-0.023 0.009,-0.046 0.028,-0.067c0.019,-0.021 0.044,-0.038 0.078,-0.049c0.033,-0.012 0.067,-0.017 0.103,-0.017c0.043,-0 0.078,0.009 0.103,0.027c0.025,0.019 0.042,0.039 0.049,0.06c0.005,0.014 0.007,0.045 0.007,0.094l-0,0.178c-0,0.021 0.001,0.034 0.002,0.039c0.002,0.005 0.004,0.009 0.008,0.012c0.003,0.003 0.007,0.004 0.011,0.004c0.008,-0 0.017,-0.006 0.026,-0.018l0.014,0.012c-0.016,0.024 -0.033,0.041 -0.05,0.052c-0.018,0.011 -0.037,0.016 -0.059,0.016c-0.027,0 -0.047,-0.006 -0.062,-0.018c-0.014,-0.012 -0.023,-0.031 -0.026,-0.055Zm-0,-0.036l-0,-0.153c-0.04,0.023 -0.069,0.048 -0.088,0.074c-0.013,0.018 -0.019,0.036 -0.019,0.054c-0,0.015 0.005,0.028 0.016,0.039c0.008,0.009 0.019,0.013 0.034,0.013c0.016,0 0.035,-0.009 0.057,-0.027Z" style="fill:#3b3b3b;fill-rule:nonzero;"/>
                            </g>
                        </g>
                        <g transform="matrix(1,0,0,1,1771.47,-117.978)">
                            <g transform="matrix(50,0,0,50,1768.96,2187.85)">
                                <path d="M0.286,-0.067c-0.056,0.049 -0.106,0.073 -0.15,0.073c-0.026,0 -0.048,-0.008 -0.065,-0.025c-0.017,-0.017 -0.026,-0.039 -0.026,-0.064c-0,-0.035 0.015,-0.067 0.045,-0.094c0.03,-0.028 0.095,-0.065 0.196,-0.112l-0,-0.045c-0,-0.035 -0.002,-0.057 -0.006,-0.066c-0.004,-0.009 -0.011,-0.016 -0.021,-0.023c-0.011,-0.007 -0.022,-0.01 -0.035,-0.01c-0.022,-0 -0.039,0.005 -0.053,0.014c-0.008,0.006 -0.012,0.013 -0.012,0.021c-0,0.006 0.004,0.015 0.013,0.025c0.013,0.014 0.019,0.027 0.019,0.04c-0,0.016 -0.006,0.03 -0.018,0.041c-0.012,0.011 -0.027,0.017 -0.047,0.017c-0.02,0 -0.037,-0.006 -0.051,-0.018c-0.014,-0.013 -0.021,-0.027 -0.021,-0.044c0,-0.023 0.009,-0.046 0.028,-0.067c0.019,-0.021 0.044,-0.038 0.078,-0.049c0.033,-0.012 0.067,-0.017 0.103,-0.017c0.043,-0 0.078,0.009 0.103,0.027c0.025,0.019 0.042,0.039 0.049,0.06c0.005,0.014 0.007,0.045 0.007,0.094l-0,0.178c-0,0.021 0.001,0.034 0.002,0.039c0.002,0.005 0.004,0.009 0.008,0.012c0.003,0.003 0.007,0.004 0.011,0.004c0.008,-0 0.017,-0.006 0.026,-0.018l0.014,0.012c-0.016,0.024 -0.033,0.041 -0.05,0.052c-0.018,0.011 -0.037,0.016 -0.059,0.016c-0.027,0 -0.047,-0.006 -0.062,-0.018c-0.014,-0.012 -0.023,-0.031 -0.026,-0.055Zm-0,-0.036l-0,-0.153c-0.04,0.023 -0.069,0.048 -0.088,0.074c-0.013,0.018 -0.019,0.036 -0.019,0.054c-0,0.015 0.005,0.028 0.016,0.039c0.008,0.009 0.019,0.013 0.034,0.013c0.016,0 0.035,-0.009 0.057,-0.027Z" style="fill:#3b3b3b;fill-rule:nonzero;"/>
                            </g>
                        </g>
                        <g transform="matrix(1,0,0,1,322.399,-243.382)">
                            <g transform="matrix(50,0,0,50,1768.96,2187.85)">
                                <path d="M0.21,-0.662l0,0.251c0.039,-0.039 0.081,-0.059 0.126,-0.059c0.032,-0 0.061,0.009 0.089,0.027c0.027,0.019 0.049,0.045 0.065,0.079c0.015,0.034 0.023,0.073 0.023,0.117c0,0.05 -0.01,0.095 -0.03,0.136c-0.019,0.04 -0.046,0.071 -0.079,0.093c-0.033,0.021 -0.071,0.032 -0.114,0.032c-0.025,-0 -0.047,-0.004 -0.066,-0.012c-0.019,-0.008 -0.038,-0.021 -0.057,-0.038l-0.075,0.049l-0.017,0l0,-0.58c0,-0.027 -0.001,-0.043 -0.003,-0.049c-0.003,-0.009 -0.009,-0.016 -0.016,-0.02c-0.007,-0.005 -0.018,-0.007 -0.035,-0.008l-0,-0.018l0.189,-0Zm0,0.295l0,0.203c0,0.041 0.001,0.068 0.003,0.079c0.004,0.019 0.011,0.035 0.024,0.047c0.012,0.012 0.028,0.017 0.047,0.017c0.017,0 0.031,-0.004 0.043,-0.014c0.012,-0.009 0.022,-0.028 0.03,-0.056c0.008,-0.028 0.012,-0.078 0.012,-0.151c-0,-0.07 -0.009,-0.118 -0.027,-0.144c-0.012,-0.019 -0.029,-0.029 -0.051,-0.029c-0.028,0 -0.055,0.016 -0.081,0.048Z" style="fill:#454545;fill-rule:nonzero;"/>
                            </g>
                        </g>
                        <g transform="matrix(1,0,0,1,965.485,998.537)">
                            <g transform="matrix(50,0,0,50,1768.96,2187.85)">
                                <path d="M0.21,-0.662l0,0.251c0.039,-0.039 0.081,-0.059 0.126,-0.059c0.032,-0 0.061,0.009 0.089,0.027c0.027,0.019 0.049,0.045 0.065,0.079c0.015,0.034 0.023,0.073 0.023,0.117c0,0.05 -0.01,0.095 -0.03,0.136c-0.019,0.04 -0.046,0.071 -0.079,0.093c-0.033,0.021 -0.071,0.032 -0.114,0.032c-0.025,-0 -0.047,-0.004 -0.066,-0.012c-0.019,-0.008 -0.038,-0.021 -0.057,-0.038l-0.075,0.049l-0.017,0l0,-0.58c0,-0.027 -0.001,-0.043 -0.003,-0.049c-0.003,-0.009 -0.009,-0.016 -0.016,-0.02c-0.007,-0.005 -0.018,-0.007 -0.035,-0.008l-0,-0.018l0.189,-0Zm0,0.295l0,0.203c0,0.041 0.001,0.068 0.003,0.079c0.004,0.019 0.011,0.035 0.024,0.047c0.012,0.012 0.028,0.017 0.047,0.017c0.017,0 0.031,-0.004 0.043,-0.014c0.012,-0.009 0.022,-0.028 0.03,-0.056c0.008,-0.028 0.012,-0.078 0.012,-0.151c-0,-0.07 -0.009,-0.118 -0.027,-0.144c-0.012,-0.019 -0.029,-0.029 -0.051,-0.029c-0.028,0 -0.055,0.016 -0.081,0.048Z" style="fill:#454545;fill-rule:nonzero;"/>
                            </g>
                        </g>
                        <g transform="matrix(1,0,0,1,1551.79,998.537)">
                            <g transform="matrix(50,0,0,50,1768.96,2187.85)">
                                <path d="M0.21,-0.662l0,0.251c0.039,-0.039 0.081,-0.059 0.126,-0.059c0.032,-0 0.061,0.009 0.089,0.027c0.027,0.019 0.049,0.045 0.065,0.079c0.015,0.034 0.023,0.073 0.023,0.117c0,0.05 -0.01,0.095 -0.03,0.136c-0.019,0.04 -0.046,0.071 -0.079,0.093c-0.033,0.021 -0.071,0.032 -0.114,0.032c-0.025,-0 -0.047,-0.004 -0.066,-0.012c-0.019,-0.008 -0.038,-0.021 -0.057,-0.038l-0.075,0.049l-0.017,0l0,-0.58c0,-0.027 -0.001,-0.043 -0.003,-0.049c-0.003,-0.009 -0.009,-0.016 -0.016,-0.02c-0.007,-0.005 -0.018,-0.007 -0.035,-0.008l-0,-0.018l0.189,-0Zm0,0.295l0,0.203c0,0.041 0.001,0.068 0.003,0.079c0.004,0.019 0.011,0.035 0.024,0.047c0.012,0.012 0.028,0.017 0.047,0.017c0.017,0 0.031,-0.004 0.043,-0.014c0.012,-0.009 0.022,-0.028 0.03,-0.056c0.008,-0.028 0.012,-0.078 0.012,-0.151c-0,-0.07 -0.009,-0.118 -0.027,-0.144c-0.012,-0.019 -0.029,-0.029 -0.051,-0.029c-0.028,0 -0.055,0.016 -0.081,0.048Z" style="fill:#454545;fill-rule:nonzero;"/>
                            </g>
                        </g>
                        <g transform="matrix(1,0,0,1,2178.04,998.537)">
                            <g transform="matrix(50,0,0,50,1768.96,2187.85)">
                                <path d="M0.21,-0.662l0,0.251c0.039,-0.039 0.081,-0.059 0.126,-0.059c0.032,-0 0.061,0.009 0.089,0.027c0.027,0.019 0.049,0.045 0.065,0.079c0.015,0.034 0.023,0.073 0.023,0.117c0,0.05 -0.01,0.095 -0.03,0.136c-0.019,0.04 -0.046,0.071 -0.079,0.093c-0.033,0.021 -0.071,0.032 -0.114,0.032c-0.025,-0 -0.047,-0.004 -0.066,-0.012c-0.019,-0.008 -0.038,-0.021 -0.057,-0.038l-0.075,0.049l-0.017,0l0,-0.58c0,-0.027 -0.001,-0.043 -0.003,-0.049c-0.003,-0.009 -0.009,-0.016 -0.016,-0.02c-0.007,-0.005 -0.018,-0.007 -0.035,-0.008l-0,-0.018l0.189,-0Zm0,0.295l0,0.203c0,0.041 0.001,0.068 0.003,0.079c0.004,0.019 0.011,0.035 0.024,0.047c0.012,0.012 0.028,0.017 0.047,0.017c0.017,0 0.031,-0.004 0.043,-0.014c0.012,-0.009 0.022,-0.028 0.03,-0.056c0.008,-0.028 0.012,-0.078 0.012,-0.151c-0,-0.07 -0.009,-0.118 -0.027,-0.144c-0.012,-0.019 -0.029,-0.029 -0.051,-0.029c-0.028,0 -0.055,0.016 -0.081,0.048Z" style="fill:#454545;fill-rule:nonzero;"/>
                            </g>
                        </g>
                        <g transform="matrix(1,0,0,1,965.708,-243.382)">
                            <g transform="matrix(50,0,0,50,1768.96,2187.85)">
                                <path d="M0.21,-0.662l0,0.251c0.039,-0.039 0.081,-0.059 0.126,-0.059c0.032,-0 0.061,0.009 0.089,0.027c0.027,0.019 0.049,0.045 0.065,0.079c0.015,0.034 0.023,0.073 0.023,0.117c0,0.05 -0.01,0.095 -0.03,0.136c-0.019,0.04 -0.046,0.071 -0.079,0.093c-0.033,0.021 -0.071,0.032 -0.114,0.032c-0.025,-0 -0.047,-0.004 -0.066,-0.012c-0.019,-0.008 -0.038,-0.021 -0.057,-0.038l-0.075,0.049l-0.017,0l0,-0.58c0,-0.027 -0.001,-0.043 -0.003,-0.049c-0.003,-0.009 -0.009,-0.016 -0.016,-0.02c-0.007,-0.005 -0.018,-0.007 -0.035,-0.008l-0,-0.018l0.189,-0Zm0,0.295l0,0.203c0,0.041 0.001,0.068 0.003,0.079c0.004,0.019 0.011,0.035 0.024,0.047c0.012,0.012 0.028,0.017 0.047,0.017c0.017,0 0.031,-0.004 0.043,-0.014c0.012,-0.009 0.022,-0.028 0.03,-0.056c0.008,-0.028 0.012,-0.078 0.012,-0.151c-0,-0.07 -0.009,-0.118 -0.027,-0.144c-0.012,-0.019 -0.029,-0.029 -0.051,-0.029c-0.028,0 -0.055,0.016 -0.081,0.048Z" style="fill:#454545;fill-rule:nonzero;"/>
                            </g>
                        </g>
                        <g transform="matrix(1,0,0,1,965.708,356.027)">
                            <g transform="matrix(50,0,0,50,1768.96,2187.85)">
                                <path d="M0.21,-0.662l0,0.251c0.039,-0.039 0.081,-0.059 0.126,-0.059c0.032,-0 0.061,0.009 0.089,0.027c0.027,0.019 0.049,0.045 0.065,0.079c0.015,0.034 0.023,0.073 0.023,0.117c0,0.05 -0.01,0.095 -0.03,0.136c-0.019,0.04 -0.046,0.071 -0.079,0.093c-0.033,0.021 -0.071,0.032 -0.114,0.032c-0.025,-0 -0.047,-0.004 -0.066,-0.012c-0.019,-0.008 -0.038,-0.021 -0.057,-0.038l-0.075,0.049l-0.017,0l0,-0.58c0,-0.027 -0.001,-0.043 -0.003,-0.049c-0.003,-0.009 -0.009,-0.016 -0.016,-0.02c-0.007,-0.005 -0.018,-0.007 -0.035,-0.008l-0,-0.018l0.189,-0Zm0,0.295l0,0.203c0,0.041 0.001,0.068 0.003,0.079c0.004,0.019 0.011,0.035 0.024,0.047c0.012,0.012 0.028,0.017 0.047,0.017c0.017,0 0.031,-0.004 0.043,-0.014c0.012,-0.009 0.022,-0.028 0.03,-0.056c0.008,-0.028 0.012,-0.078 0.012,-0.151c-0,-0.07 -0.009,-0.118 -0.027,-0.144c-0.012,-0.019 -0.029,-0.029 -0.051,-0.029c-0.028,0 -0.055,0.016 -0.081,0.048Z" style="fill:#454545;fill-rule:nonzero;"/>
                            </g>
                        </g>
                        <g transform="matrix(1,0,0,1,1548.86,356.027)">
                            <g transform="matrix(50,0,0,50,1768.96,2187.85)">
                                <path d="M0.21,-0.662l0,0.251c0.039,-0.039 0.081,-0.059 0.126,-0.059c0.032,-0 0.061,0.009 0.089,0.027c0.027,0.019 0.049,0.045 0.065,0.079c0.015,0.034 0.023,0.073 0.023,0.117c0,0.05 -0.01,0.095 -0.03,0.136c-0.019,0.04 -0.046,0.071 -0.079,0.093c-0.033,0.021 -0.071,0.032 -0.114,0.032c-0.025,-0 -0.047,-0.004 -0.066,-0.012c-0.019,-0.008 -0.038,-0.021 -0.057,-0.038l-0.075,0.049l-0.017,0l0,-0.58c0,-0.027 -0.001,-0.043 -0.003,-0.049c-0.003,-0.009 -0.009,-0.016 -0.016,-0.02c-0.007,-0.005 -0.018,-0.007 -0.035,-0.008l-0,-0.018l0.189,-0Zm0,0.295l0,0.203c0,0.041 0.001,0.068 0.003,0.079c0.004,0.019 0.011,0.035 0.024,0.047c0.012,0.012 0.028,0.017 0.047,0.017c0.017,0 0.031,-0.004 0.043,-0.014c0.012,-0.009 0.022,-0.028 0.03,-0.056c0.008,-0.028 0.012,-0.078 0.012,-0.151c-0,-0.07 -0.009,-0.118 -0.027,-0.144c-0.012,-0.019 -0.029,-0.029 -0.051,-0.029c-0.028,0 -0.055,0.016 -0.081,0.048Z" style="fill:#454545;fill-rule:nonzero;"/>
                            </g>
                        </g>
                        <g transform="matrix(1,0,0,1,2174.33,356.027)">
                            <g transform="matrix(50,0,0,50,1768.96,2187.85)">
                                <path d="M0.21,-0.662l0,0.251c0.039,-0.039 0.081,-0.059 0.126,-0.059c0.032,-0 0.061,0.009 0.089,0.027c0.027,0.019 0.049,0.045 0.065,0.079c0.015,0.034 0.023,0.073 0.023,0.117c0,0.05 -0.01,0.095 -0.03,0.136c-0.019,0.04 -0.046,0.071 -0.079,0.093c-0.033,0.021 -0.071,0.032 -0.114,0.032c-0.025,-0 -0.047,-0.004 -0.066,-0.012c-0.019,-0.008 -0.038,-0.021 -0.057,-0.038l-0.075,0.049l-0.017,0l0,-0.58c0,-0.027 -0.001,-0.043 -0.003,-0.049c-0.003,-0.009 -0.009,-0.016 -0.016,-0.02c-0.007,-0.005 -0.018,-0.007 -0.035,-0.008l-0,-0.018l0.189,-0Zm0,0.295l0,0.203c0,0.041 0.001,0.068 0.003,0.079c0.004,0.019 0.011,0.035 0.024,0.047c0.012,0.012 0.028,0.017 0.047,0.017c0.017,0 0.031,-0.004 0.043,-0.014c0.012,-0.009 0.022,-0.028 0.03,-0.056c0.008,-0.028 0.012,-0.078 0.012,-0.151c-0,-0.07 -0.009,-0.118 -0.027,-0.144c-0.012,-0.019 -0.029,-0.029 -0.051,-0.029c-0.028,0 -0.055,0.016 -0.081,0.048Z" style="fill:#454545;fill-rule:nonzero;"/>
                            </g>
                        </g>
                        <g transform="matrix(1,0,0,1,1548.15,-243.382)">
                            <g transform="matrix(50,0,0,50,1768.96,2187.85)">
                                <path d="M0.21,-0.662l0,0.251c0.039,-0.039 0.081,-0.059 0.126,-0.059c0.032,-0 0.061,0.009 0.089,0.027c0.027,0.019 0.049,0.045 0.065,0.079c0.015,0.034 0.023,0.073 0.023,0.117c0,0.05 -0.01,0.095 -0.03,0.136c-0.019,0.04 -0.046,0.071 -0.079,0.093c-0.033,0.021 -0.071,0.032 -0.114,0.032c-0.025,-0 -0.047,-0.004 -0.066,-0.012c-0.019,-0.008 -0.038,-0.021 -0.057,-0.038l-0.075,0.049l-0.017,0l0,-0.58c0,-0.027 -0.001,-0.043 -0.003,-0.049c-0.003,-0.009 -0.009,-0.016 -0.016,-0.02c-0.007,-0.005 -0.018,-0.007 -0.035,-0.008l-0,-0.018l0.189,-0Zm0,0.295l0,0.203c0,0.041 0.001,0.068 0.003,0.079c0.004,0.019 0.011,0.035 0.024,0.047c0.012,0.012 0.028,0.017 0.047,0.017c0.017,0 0.031,-0.004 0.043,-0.014c0.012,-0.009 0.022,-0.028 0.03,-0.056c0.008,-0.028 0.012,-0.078 0.012,-0.151c-0,-0.07 -0.009,-0.118 -0.027,-0.144c-0.012,-0.019 -0.029,-0.029 -0.051,-0.029c-0.028,0 -0.055,0.016 -0.081,0.048Z" style="fill:#454545;fill-rule:nonzero;"/>
                            </g>
                        </g>
                        <g transform="matrix(1,0,0,1,2175.46,-243.382)">
                            <g transform="matrix(50,0,0,50,1768.96,2187.85)">
                                <path d="M0.21,-0.662l0,0.251c0.039,-0.039 0.081,-0.059 0.126,-0.059c0.032,-0 0.061,0.009 0.089,0.027c0.027,0.019 0.049,0.045 0.065,0.079c0.015,0.034 0.023,0.073 0.023,0.117c0,0.05 -0.01,0.095 -0.03,0.136c-0.019,0.04 -0.046,0.071 -0.079,0.093c-0.033,0.021 -0.071,0.032 -0.114,0.032c-0.025,-0 -0.047,-0.004 -0.066,-0.012c-0.019,-0.008 -0.038,-0.021 -0.057,-0.038l-0.075,0.049l-0.017,0l0,-0.58c0,-0.027 -0.001,-0.043 -0.003,-0.049c-0.003,-0.009 -0.009,-0.016 -0.016,-0.02c-0.007,-0.005 -0.018,-0.007 -0.035,-0.008l-0,-0.018l0.189,-0Zm0,0.295l0,0.203c0,0.041 0.001,0.068 0.003,0.079c0.004,0.019 0.011,0.035 0.024,0.047c0.012,0.012 0.028,0.017 0.047,0.017c0.017,0 0.031,-0.004 0.043,-0.014c0.012,-0.009 0.022,-0.028 0.03,-0.056c0.008,-0.028 0.012,-0.078 0.012,-0.151c-0,-0.07 -0.009,-0.118 -0.027,-0.144c-0.012,-0.019 -0.029,-0.029 -0.051,-0.029c-0.028,0 -0.055,0.016 -0.081,0.048Z" style="fill:#454545;fill-rule:nonzero;"/>
                            </g>
                        </g>
                        <g transform="matrix(1,0,0,1,12.4937,-542.572)">
                            <g transform="matrix(50,0,0,50,1768.96,2187.85)">
                                <path d="M0.406,-0.118l0.015,0.012c-0.021,0.04 -0.048,0.07 -0.08,0.09c-0.032,0.02 -0.066,0.03 -0.102,0.03c-0.061,-0 -0.11,-0.023 -0.146,-0.069c-0.037,-0.046 -0.055,-0.101 -0.055,-0.166c0,-0.062 0.017,-0.117 0.05,-0.164c0.04,-0.057 0.095,-0.085 0.165,-0.085c0.048,-0 0.085,0.012 0.113,0.035c0.028,0.024 0.042,0.051 0.042,0.08c-0,0.019 -0.006,0.033 -0.017,0.044c-0.011,0.012 -0.026,0.017 -0.044,0.017c-0.02,0 -0.035,-0.006 -0.048,-0.019c-0.012,-0.013 -0.02,-0.035 -0.023,-0.068c-0.002,-0.02 -0.007,-0.035 -0.014,-0.043c-0.008,-0.008 -0.017,-0.012 -0.027,-0.012c-0.015,-0 -0.029,0.008 -0.04,0.025c-0.017,0.025 -0.025,0.063 -0.025,0.115c-0,0.043 0.007,0.084 0.02,0.123c0.014,0.04 0.033,0.069 0.057,0.088c0.017,0.014 0.039,0.021 0.063,0.021c0.016,0 0.031,-0.004 0.045,-0.011c0.015,-0.008 0.032,-0.022 0.051,-0.043Z" style="fill:#686868;fill-rule:nonzero;"/>
                            </g>
                        </g>
                        <g transform="matrix(1,0,0,1,655.579,699.348)">
                            <g transform="matrix(50,0,0,50,1768.96,2187.85)">
                                <path d="M0.406,-0.118l0.015,0.012c-0.021,0.04 -0.048,0.07 -0.08,0.09c-0.032,0.02 -0.066,0.03 -0.102,0.03c-0.061,-0 -0.11,-0.023 -0.146,-0.069c-0.037,-0.046 -0.055,-0.101 -0.055,-0.166c0,-0.062 0.017,-0.117 0.05,-0.164c0.04,-0.057 0.095,-0.085 0.165,-0.085c0.048,-0 0.085,0.012 0.113,0.035c0.028,0.024 0.042,0.051 0.042,0.08c-0,0.019 -0.006,0.033 -0.017,0.044c-0.011,0.012 -0.026,0.017 -0.044,0.017c-0.02,0 -0.035,-0.006 -0.048,-0.019c-0.012,-0.013 -0.02,-0.035 -0.023,-0.068c-0.002,-0.02 -0.007,-0.035 -0.014,-0.043c-0.008,-0.008 -0.017,-0.012 -0.027,-0.012c-0.015,-0 -0.029,0.008 -0.04,0.025c-0.017,0.025 -0.025,0.063 -0.025,0.115c-0,0.043 0.007,0.084 0.02,0.123c0.014,0.04 0.033,0.069 0.057,0.088c0.017,0.014 0.039,0.021 0.063,0.021c0.016,0 0.031,-0.004 0.045,-0.011c0.015,-0.008 0.032,-0.022 0.051,-0.043Z" style="fill:#686868;fill-rule:nonzero;"/>
                            </g>
                        </g>
                        <g transform="matrix(1,0,0,1,1241.89,699.348)">
                            <g transform="matrix(50,0,0,50,1768.96,2187.85)">
                                <path d="M0.406,-0.118l0.015,0.012c-0.021,0.04 -0.048,0.07 -0.08,0.09c-0.032,0.02 -0.066,0.03 -0.102,0.03c-0.061,-0 -0.11,-0.023 -0.146,-0.069c-0.037,-0.046 -0.055,-0.101 -0.055,-0.166c0,-0.062 0.017,-0.117 0.05,-0.164c0.04,-0.057 0.095,-0.085 0.165,-0.085c0.048,-0 0.085,0.012 0.113,0.035c0.028,0.024 0.042,0.051 0.042,0.08c-0,0.019 -0.006,0.033 -0.017,0.044c-0.011,0.012 -0.026,0.017 -0.044,0.017c-0.02,0 -0.035,-0.006 -0.048,-0.019c-0.012,-0.013 -0.02,-0.035 -0.023,-0.068c-0.002,-0.02 -0.007,-0.035 -0.014,-0.043c-0.008,-0.008 -0.017,-0.012 -0.027,-0.012c-0.015,-0 -0.029,0.008 -0.04,0.025c-0.017,0.025 -0.025,0.063 -0.025,0.115c-0,0.043 0.007,0.084 0.02,0.123c0.014,0.04 0.033,0.069 0.057,0.088c0.017,0.014 0.039,0.021 0.063,0.021c0.016,0 0.031,-0.004 0.045,-0.011c0.015,-0.008 0.032,-0.022 0.051,-0.043Z" style="fill:#686868;fill-rule:nonzero;"/>
                            </g>
                        </g>
                        <g transform="matrix(1,0,0,1,1868.14,699.348)">
                            <g transform="matrix(50,0,0,50,1768.96,2187.85)">
                                <path d="M0.406,-0.118l0.015,0.012c-0.021,0.04 -0.048,0.07 -0.08,0.09c-0.032,0.02 -0.066,0.03 -0.102,0.03c-0.061,-0 -0.11,-0.023 -0.146,-0.069c-0.037,-0.046 -0.055,-0.101 -0.055,-0.166c0,-0.062 0.017,-0.117 0.05,-0.164c0.04,-0.057 0.095,-0.085 0.165,-0.085c0.048,-0 0.085,0.012 0.113,0.035c0.028,0.024 0.042,0.051 0.042,0.08c-0,0.019 -0.006,0.033 -0.017,0.044c-0.011,0.012 -0.026,0.017 -0.044,0.017c-0.02,0 -0.035,-0.006 -0.048,-0.019c-0.012,-0.013 -0.02,-0.035 -0.023,-0.068c-0.002,-0.02 -0.007,-0.035 -0.014,-0.043c-0.008,-0.008 -0.017,-0.012 -0.027,-0.012c-0.015,-0 -0.029,0.008 -0.04,0.025c-0.017,0.025 -0.025,0.063 -0.025,0.115c-0,0.043 0.007,0.084 0.02,0.123c0.014,0.04 0.033,0.069 0.057,0.088c0.017,0.014 0.039,0.021 0.063,0.021c0.016,0 0.031,-0.004 0.045,-0.011c0.015,-0.008 0.032,-0.022 0.051,-0.043Z" style="fill:#686868;fill-rule:nonzero;"/>
                            </g>
                        </g>
                        <g transform="matrix(1,0,0,1,655.802,-542.572)">
                            <g transform="matrix(50,0,0,50,1768.96,2187.85)">
                                <path d="M0.406,-0.118l0.015,0.012c-0.021,0.04 -0.048,0.07 -0.08,0.09c-0.032,0.02 -0.066,0.03 -0.102,0.03c-0.061,-0 -0.11,-0.023 -0.146,-0.069c-0.037,-0.046 -0.055,-0.101 -0.055,-0.166c0,-0.062 0.017,-0.117 0.05,-0.164c0.04,-0.057 0.095,-0.085 0.165,-0.085c0.048,-0 0.085,0.012 0.113,0.035c0.028,0.024 0.042,0.051 0.042,0.08c-0,0.019 -0.006,0.033 -0.017,0.044c-0.011,0.012 -0.026,0.017 -0.044,0.017c-0.02,0 -0.035,-0.006 -0.048,-0.019c-0.012,-0.013 -0.02,-0.035 -0.023,-0.068c-0.002,-0.02 -0.007,-0.035 -0.014,-0.043c-0.008,-0.008 -0.017,-0.012 -0.027,-0.012c-0.015,-0 -0.029,0.008 -0.04,0.025c-0.017,0.025 -0.025,0.063 -0.025,0.115c-0,0.043 0.007,0.084 0.02,0.123c0.014,0.04 0.033,0.069 0.057,0.088c0.017,0.014 0.039,0.021 0.063,0.021c0.016,0 0.031,-0.004 0.045,-0.011c0.015,-0.008 0.032,-0.022 0.051,-0.043Z" style="fill:#686868;fill-rule:nonzero;"/>
                            </g>
                        </g>
                        <g transform="matrix(1,0,0,1,655.802,56.8377)">
                            <g transform="matrix(50,0,0,50,1768.96,2187.85)">
                                <path d="M0.406,-0.118l0.015,0.012c-0.021,0.04 -0.048,0.07 -0.08,0.09c-0.032,0.02 -0.066,0.03 -0.102,0.03c-0.061,-0 -0.11,-0.023 -0.146,-0.069c-0.037,-0.046 -0.055,-0.101 -0.055,-0.166c0,-0.062 0.017,-0.117 0.05,-0.164c0.04,-0.057 0.095,-0.085 0.165,-0.085c0.048,-0 0.085,0.012 0.113,0.035c0.028,0.024 0.042,0.051 0.042,0.08c-0,0.019 -0.006,0.033 -0.017,0.044c-0.011,0.012 -0.026,0.017 -0.044,0.017c-0.02,0 -0.035,-0.006 -0.048,-0.019c-0.012,-0.013 -0.02,-0.035 -0.023,-0.068c-0.002,-0.02 -0.007,-0.035 -0.014,-0.043c-0.008,-0.008 -0.017,-0.012 -0.027,-0.012c-0.015,-0 -0.029,0.008 -0.04,0.025c-0.017,0.025 -0.025,0.063 -0.025,0.115c-0,0.043 0.007,0.084 0.02,0.123c0.014,0.04 0.033,0.069 0.057,0.088c0.017,0.014 0.039,0.021 0.063,0.021c0.016,0 0.031,-0.004 0.045,-0.011c0.015,-0.008 0.032,-0.022 0.051,-0.043Z" style="fill:#686868;fill-rule:nonzero;"/>
                            </g>
                        </g>
                        <g transform="matrix(1,0,0,1,1238.95,56.8377)">
                            <g transform="matrix(50,0,0,50,1768.96,2187.85)">
                                <path d="M0.406,-0.118l0.015,0.012c-0.021,0.04 -0.048,0.07 -0.08,0.09c-0.032,0.02 -0.066,0.03 -0.102,0.03c-0.061,-0 -0.11,-0.023 -0.146,-0.069c-0.037,-0.046 -0.055,-0.101 -0.055,-0.166c0,-0.062 0.017,-0.117 0.05,-0.164c0.04,-0.057 0.095,-0.085 0.165,-0.085c0.048,-0 0.085,0.012 0.113,0.035c0.028,0.024 0.042,0.051 0.042,0.08c-0,0.019 -0.006,0.033 -0.017,0.044c-0.011,0.012 -0.026,0.017 -0.044,0.017c-0.02,0 -0.035,-0.006 -0.048,-0.019c-0.012,-0.013 -0.02,-0.035 -0.023,-0.068c-0.002,-0.02 -0.007,-0.035 -0.014,-0.043c-0.008,-0.008 -0.017,-0.012 -0.027,-0.012c-0.015,-0 -0.029,0.008 -0.04,0.025c-0.017,0.025 -0.025,0.063 -0.025,0.115c-0,0.043 0.007,0.084 0.02,0.123c0.014,0.04 0.033,0.069 0.057,0.088c0.017,0.014 0.039,0.021 0.063,0.021c0.016,0 0.031,-0.004 0.045,-0.011c0.015,-0.008 0.032,-0.022 0.051,-0.043Z" style="fill:#686868;fill-rule:nonzero;"/>
                            </g>
                        </g>
                        <g transform="matrix(1,0,0,1,1864.42,56.8377)">
                            <g transform="matrix(50,0,0,50,1768.96,2187.85)">
                                <path d="M0.406,-0.118l0.015,0.012c-0.021,0.04 -0.048,0.07 -0.08,0.09c-0.032,0.02 -0.066,0.03 -0.102,0.03c-0.061,-0 -0.11,-0.023 -0.146,-0.069c-0.037,-0.046 -0.055,-0.101 -0.055,-0.166c0,-0.062 0.017,-0.117 0.05,-0.164c0.04,-0.057 0.095,-0.085 0.165,-0.085c0.048,-0 0.085,0.012 0.113,0.035c0.028,0.024 0.042,0.051 0.042,0.08c-0,0.019 -0.006,0.033 -0.017,0.044c-0.011,0.012 -0.026,0.017 -0.044,0.017c-0.02,0 -0.035,-0.006 -0.048,-0.019c-0.012,-0.013 -0.02,-0.035 -0.023,-0.068c-0.002,-0.02 -0.007,-0.035 -0.014,-0.043c-0.008,-0.008 -0.017,-0.012 -0.027,-0.012c-0.015,-0 -0.029,0.008 -0.04,0.025c-0.017,0.025 -0.025,0.063 -0.025,0.115c-0,0.043 0.007,0.084 0.02,0.123c0.014,0.04 0.033,0.069 0.057,0.088c0.017,0.014 0.039,0.021 0.063,0.021c0.016,0 0.031,-0.004 0.045,-0.011c0.015,-0.008 0.032,-0.022 0.051,-0.043Z" style="fill:#686868;fill-rule:nonzero;"/>
                            </g>
                        </g>
                        <g transform="matrix(1,0,0,1,1238.25,-542.572)">
                            <g transform="matrix(50,0,0,50,1768.96,2187.85)">
                                <path d="M0.406,-0.118l0.015,0.012c-0.021,0.04 -0.048,0.07 -0.08,0.09c-0.032,0.02 -0.066,0.03 -0.102,0.03c-0.061,-0 -0.11,-0.023 -0.146,-0.069c-0.037,-0.046 -0.055,-0.101 -0.055,-0.166c0,-0.062 0.017,-0.117 0.05,-0.164c0.04,-0.057 0.095,-0.085 0.165,-0.085c0.048,-0 0.085,0.012 0.113,0.035c0.028,0.024 0.042,0.051 0.042,0.08c-0,0.019 -0.006,0.033 -0.017,0.044c-0.011,0.012 -0.026,0.017 -0.044,0.017c-0.02,0 -0.035,-0.006 -0.048,-0.019c-0.012,-0.013 -0.02,-0.035 -0.023,-0.068c-0.002,-0.02 -0.007,-0.035 -0.014,-0.043c-0.008,-0.008 -0.017,-0.012 -0.027,-0.012c-0.015,-0 -0.029,0.008 -0.04,0.025c-0.017,0.025 -0.025,0.063 -0.025,0.115c-0,0.043 0.007,0.084 0.02,0.123c0.014,0.04 0.033,0.069 0.057,0.088c0.017,0.014 0.039,0.021 0.063,0.021c0.016,0 0.031,-0.004 0.045,-0.011c0.015,-0.008 0.032,-0.022 0.051,-0.043Z" style="fill:#686868;fill-rule:nonzero;"/>
                            </g>
                        </g>
                        <g transform="matrix(1,0,0,1,1865.55,-542.572)">
                            <g transform="matrix(50,0,0,50,1768.96,2187.85)">
                                <path d="M0.406,-0.118l0.015,0.012c-0.021,0.04 -0.048,0.07 -0.08,0.09c-0.032,0.02 -0.066,0.03 -0.102,0.03c-0.061,-0 -0.11,-0.023 -0.146,-0.069c-0.037,-0.046 -0.055,-0.101 -0.055,-0.166c0,-0.062 0.017,-0.117 0.05,-0.164c0.04,-0.057 0.095,-0.085 0.165,-0.085c0.048,-0 0.085,0.012 0.113,0.035c0.028,0.024 0.042,0.051 0.042,0.08c-0,0.019 -0.006,0.033 -0.017,0.044c-0.011,0.012 -0.026,0.017 -0.044,0.017c-0.02,0 -0.035,-0.006 -0.048,-0.019c-0.012,-0.013 -0.02,-0.035 -0.023,-0.068c-0.002,-0.02 -0.007,-0.035 -0.014,-0.043c-0.008,-0.008 -0.017,-0.012 -0.027,-0.012c-0.015,-0 -0.029,0.008 -0.04,0.025c-0.017,0.025 -0.025,0.063 -0.025,0.115c-0,0.043 0.007,0.084 0.02,0.123c0.014,0.04 0.033,0.069 0.057,0.088c0.017,0.014 0.039,0.021 0.063,0.021c0.016,0 0.031,-0.004 0.045,-0.011c0.015,-0.008 0.032,-0.022 0.051,-0.043Z" style="fill:#686868;fill-rule:nonzero;"/>
                            </g>
                        </g>
                    </g>
                </g>
                <g transform="matrix(0.514542,0,0,0.605072,752.903,1322.71)">
                    <path d="M2218.8,2025.79l131.203,-487.999l356.796,359.661l-487.999,128.338Z" style="fill:#c38a5b;fill-opacity:0.5;"/>
                </g>
                <g transform="matrix(0.514542,0,0,0.605072,1054.58,1105.09)">
                    <path d="M2218.8,2025.79l128.338,231.323l359.661,-359.661l-487.999,128.338Z" style="fill:#c38a5b;fill-opacity:0.5;"/>
                </g>
                <g transform="matrix(0.514542,0,0,0.605072,1376.81,1105.09)">
                    <path d="M2347.14,1897.45l-128.338,487.999l359.661,-359.661l-231.323,-128.338Z" style="fill:#c38a5b;fill-opacity:0.5;"/>
                </g>
                <g transform="matrix(0.514542,0,0,0.605072,845.547,571.263)">
                    <path d="M2398.63,2025.79l-0,-359.661l128.337,-128.338l0,359.661l-128.337,128.338Z" style="fill:#c38a5b;fill-opacity:0.5;"/>
                </g>
                <g transform="matrix(0.514542,0,0,0.605072,745.338,571.263)">
                    <path d="M2398.63,2025.79l-0,-359.661l128.337,-128.338l0,359.661l-128.337,128.338Z" style="fill:#c38a5b;fill-opacity:0.5;"/>
                </g>
                <g transform="matrix(0.514542,0,0,0.605072,745.338,933.949)">
                    <path d="M2593.38,2025.79l0,-359.661l-231.02,-128.338l0,359.661l231.02,128.338Z" style="fill:#c38a5b;fill-opacity:0.5;"/>
                </g>
                <g transform="matrix(0.514542,0,0,0.605072,1045.39,933.949)">
                    <path d="M2413.55,2025.79l-0,-359.661l-51.19,-128.338l0,359.661l51.19,128.338Z" style="fill:#c38a5b;fill-opacity:0.5;"/>
                </g>
                <g transform="matrix(0.514542,0,0,0.605072,1368.5,936.086)">
                    <path d="M2719.24,1893.92l-128.337,-231.323l-359.661,0l131.12,234.855l356.878,-3.532Z" style="fill:#c38a5b;fill-opacity:0.5;"/>
                </g>
                <g transform="matrix(0.514542,0,0,0.605072,1137.38,933.949)">
                    <path d="M2413.55,2025.79l-0,-359.661l-51.19,-128.338l0,359.661l51.19,128.338Z" style="fill:#c38a5b;fill-opacity:0.5;"/>
                </g>
                <g transform="matrix(0.514542,0,0,0.605072,660.643,571.263)">
                    <path d="M2398.63,2025.79l-0,-359.661l128.337,-128.338l0,359.661l-128.337,128.338Z" style="fill:#c38a5b;fill-opacity:0.5;"/>
                </g>
                <g transform="matrix(0.514542,0,0,0.605072,774.301,968.211)">
                    <g transform="matrix(50,0,0,50,2876.81,2689.17)">
                        <path d="M0.104,0.183l0,-0.845l0.197,-0l-0,0.02l-0.022,0c-0.022,0 -0.036,0.003 -0.043,0.007c-0.008,0.004 -0.013,0.011 -0.017,0.02c-0.004,0.008 -0.006,0.029 -0.006,0.062l0,0.63c0,0.031 0.001,0.049 0.002,0.054c0.003,0.012 0.009,0.02 0.017,0.026c0.008,0.005 0.023,0.008 0.047,0.008l0.022,0l-0,0.018l-0.197,-0Z" style="fill:#3b3b3b;fill-rule:nonzero;"/>
                    </g>
                    <g transform="matrix(50,0,0,50,2893.46,2689.17)">
                        <path d="M0.326,-0.676l-0,0.542c-0,0.04 0.001,0.066 0.005,0.078c0.004,0.011 0.011,0.02 0.023,0.027c0.011,0.007 0.029,0.011 0.054,0.011l0.015,-0l0,0.018l-0.348,0l-0,-0.018l0.017,-0c0.029,-0 0.049,-0.003 0.061,-0.01c0.012,-0.006 0.02,-0.015 0.024,-0.027c0.004,-0.011 0.007,-0.038 0.007,-0.079l-0,-0.344c-0,-0.03 -0.002,-0.049 -0.005,-0.057c-0.003,-0.008 -0.008,-0.014 -0.016,-0.019c-0.008,-0.006 -0.017,-0.008 -0.028,-0.008c-0.016,-0 -0.037,0.005 -0.06,0.015l-0.009,-0.017l0.244,-0.112l0.016,0Z" style="fill:#3b3b3b;fill-rule:nonzero;"/>
                    </g>
                    <g transform="matrix(50,0,0,50,2930.96,2689.17)">
                        <path d="M0.326,-0.676l-0,0.542c-0,0.04 0.001,0.066 0.005,0.078c0.004,0.011 0.011,0.02 0.023,0.027c0.011,0.007 0.029,0.011 0.054,0.011l0.015,-0l0,0.018l-0.348,0l-0,-0.018l0.017,-0c0.029,-0 0.049,-0.003 0.061,-0.01c0.012,-0.006 0.02,-0.015 0.024,-0.027c0.004,-0.011 0.007,-0.038 0.007,-0.079l-0,-0.344c-0,-0.03 -0.002,-0.049 -0.005,-0.057c-0.003,-0.008 -0.008,-0.014 -0.016,-0.019c-0.008,-0.006 -0.017,-0.008 -0.028,-0.008c-0.016,-0 -0.037,0.005 -0.06,0.015l-0.009,-0.017l0.244,-0.112l0.016,0Z" style="fill:#3b3b3b;fill-rule:nonzero;"/>
                    </g>
                    <g transform="matrix(50,0,0,50,2968.46,2689.17)">
                        <rect x="-0.008" y="-0.261" width="0.516" height="0.059" style="fill:#3b3b3b;fill-rule:nonzero;"/>
                    </g>
                    <g transform="matrix(50,0,0,50,2993.46,2689.17)">
                        <path d="M0.326,-0.676l-0,0.542c-0,0.04 0.001,0.066 0.005,0.078c0.004,0.011 0.011,0.02 0.023,0.027c0.011,0.007 0.029,0.011 0.054,0.011l0.015,-0l0,0.018l-0.348,0l-0,-0.018l0.017,-0c0.029,-0 0.049,-0.003 0.061,-0.01c0.012,-0.006 0.02,-0.015 0.024,-0.027c0.004,-0.011 0.007,-0.038 0.007,-0.079l-0,-0.344c-0,-0.03 -0.002,-0.049 -0.005,-0.057c-0.003,-0.008 -0.008,-0.014 -0.016,-0.019c-0.008,-0.006 -0.017,-0.008 -0.028,-0.008c-0.016,-0 -0.037,0.005 -0.06,0.015l-0.009,-0.017l0.244,-0.112l0.016,0Z" style="fill:#3b3b3b;fill-rule:nonzero;"/>
                    </g>
                    <g transform="matrix(50,0,0,50,3018.46,2689.17)">
                        <path d="M0.229,-0.662l0,0.845l-0.196,-0l-0,-0.019l0.022,0c0.021,0 0.036,-0.002 0.043,-0.006c0.007,-0.005 0.013,-0.011 0.017,-0.02c0.003,-0.009 0.005,-0.029 0.005,-0.062l0,-0.631c0,-0.031 -0.001,-0.049 -0.002,-0.053c-0.003,-0.012 -0.008,-0.02 -0.016,-0.026c-0.008,-0.006 -0.024,-0.009 -0.047,-0.009l-0.022,0l-0,-0.019l0.196,-0Z" style="fill:#3b3b3b;fill-rule:nonzero;"/>
                    </g>
                </g>
                <g transform="matrix(0.514542,0,0,0.605072,774.301,565.951)">
                    <g transform="matrix(50,0,0,50,2889.31,2689.17)">
                        <path d="M0.104,0.183l0,-0.845l0.197,-0l-0,0.02l-0.022,0c-0.022,0 -0.036,0.003 -0.043,0.007c-0.008,0.004 -0.013,0.011 -0.017,0.02c-0.004,0.008 -0.006,0.029 -0.006,0.062l0,0.63c0,0.031 0.001,0.049 0.002,0.054c0.003,0.012 0.009,0.02 0.017,0.026c0.008,0.005 0.023,0.008 0.047,0.008l0.022,0l-0,0.018l-0.197,-0Z" style="fill:#3b3b3b;fill-rule:nonzero;"/>
                    </g>
                    <g transform="matrix(50,0,0,50,2905.96,2689.17)">
                        <path d="M0.326,-0.676l-0,0.542c-0,0.04 0.001,0.066 0.005,0.078c0.004,0.011 0.011,0.02 0.023,0.027c0.011,0.007 0.029,0.011 0.054,0.011l0.015,-0l0,0.018l-0.348,0l-0,-0.018l0.017,-0c0.029,-0 0.049,-0.003 0.061,-0.01c0.012,-0.006 0.02,-0.015 0.024,-0.027c0.004,-0.011 0.007,-0.038 0.007,-0.079l-0,-0.344c-0,-0.03 -0.002,-0.049 -0.005,-0.057c-0.003,-0.008 -0.008,-0.014 -0.016,-0.019c-0.008,-0.006 -0.017,-0.008 -0.028,-0.008c-0.016,-0 -0.037,0.005 -0.06,0.015l-0.009,-0.017l0.244,-0.112l0.016,0Z" style="fill:#3b3b3b;fill-rule:nonzero;"/>
                    </g>
                    <g transform="matrix(50,0,0,50,2943.46,2689.17)">
                        <path d="M0.414,-0l-0.39,-0l0,-0.011c0.12,-0.142 0.192,-0.238 0.218,-0.287c0.025,-0.049 0.038,-0.097 0.038,-0.144c0,-0.034 -0.01,-0.062 -0.031,-0.085c-0.022,-0.023 -0.048,-0.034 -0.078,-0.034c-0.05,-0 -0.089,0.025 -0.117,0.075l-0.018,-0.006c0.018,-0.063 0.044,-0.109 0.08,-0.139c0.036,-0.03 0.077,-0.045 0.124,-0.045c0.034,0 0.064,0.008 0.092,0.024c0.028,0.015 0.049,0.037 0.065,0.064c0.016,0.027 0.023,0.053 0.023,0.076c0,0.044 -0.012,0.088 -0.036,0.132c-0.033,0.06 -0.104,0.144 -0.215,0.252l0.143,0c0.035,0 0.058,-0.001 0.069,-0.004c0.01,-0.003 0.019,-0.008 0.026,-0.015c0.007,-0.007 0.016,-0.022 0.027,-0.044l0.017,-0l-0.037,0.191Z" style="fill:#3b3b3b;fill-rule:nonzero;"/>
                    </g>
                    <g transform="matrix(50,0,0,50,2980.96,2689.17)">
                        <path d="M0.463,-0.331c0,0.066 -0.009,0.128 -0.027,0.185c-0.012,0.035 -0.026,0.064 -0.045,0.086c-0.019,0.023 -0.04,0.041 -0.064,0.054c-0.024,0.013 -0.049,0.02 -0.077,0.02c-0.032,-0 -0.061,-0.008 -0.087,-0.025c-0.026,-0.016 -0.048,-0.039 -0.068,-0.07c-0.015,-0.022 -0.027,-0.051 -0.038,-0.088c-0.014,-0.05 -0.021,-0.101 -0.021,-0.154c0,-0.072 0.01,-0.138 0.03,-0.198c0.017,-0.05 0.042,-0.088 0.076,-0.115c0.034,-0.027 0.07,-0.04 0.108,-0.04c0.038,0 0.074,0.013 0.107,0.04c0.034,0.026 0.058,0.061 0.074,0.105c0.021,0.061 0.032,0.128 0.032,0.2Zm-0.15,-0.001c-0,-0.116 -0.001,-0.183 -0.002,-0.203c-0.003,-0.045 -0.011,-0.076 -0.023,-0.091c-0.009,-0.011 -0.022,-0.016 -0.04,-0.016c-0.014,-0 -0.025,0.004 -0.033,0.012c-0.012,0.011 -0.02,0.031 -0.025,0.06c-0.004,0.029 -0.006,0.129 -0.006,0.301c0,0.094 0.003,0.157 0.01,0.189c0.005,0.023 0.012,0.038 0.021,0.046c0.009,0.008 0.021,0.012 0.036,0.012c0.016,0 0.028,-0.005 0.037,-0.016c0.013,-0.018 0.021,-0.046 0.023,-0.084l0.002,-0.21Z" style="fill:#3b3b3b;fill-rule:nonzero;"/>
                    </g>
                    <g transform="matrix(50,0,0,50,3005.96,2689.17)">
                        <path d="M0.229,-0.662l0,0.845l-0.196,-0l-0,-0.019l0.022,0c0.021,0 0.036,-0.002 0.043,-0.006c0.007,-0.005 0.013,-0.011 0.017,-0.02c0.003,-0.009 0.005,-0.029 0.005,-0.062l0,-0.631c0,-0.031 -0.001,-0.049 -0.002,-0.053c-0.003,-0.012 -0.008,-0.02 -0.016,-0.026c-0.008,-0.006 -0.024,-0.009 -0.047,-0.009l-0.022,0l-0,-0.019l0.196,-0Z" style="fill:#3b3b3b;fill-rule:nonzero;"/>
                    </g>
                </g>
                <g transform="matrix(0.514542,0,0,0.605072,1096.53,968.211)">
                    <g transform="matrix(50,0,0,50,2876.81,2689.17)">
                        <path d="M0.104,0.183l0,-0.845l0.197,-0l-0,0.02l-0.022,0c-0.022,0 -0.036,0.003 -0.043,0.007c-0.008,0.004 -0.013,0.011 -0.017,0.02c-0.004,0.008 -0.006,0.029 -0.006,0.062l0,0.63c0,0.031 0.001,0.049 0.002,0.054c0.003,0.012 0.009,0.02 0.017,0.026c0.008,0.005 0.023,0.008 0.047,0.008l0.022,0l-0,0.018l-0.197,-0Z" style="fill:#3b3b3b;fill-rule:nonzero;"/>
                    </g>
                    <g transform="matrix(50,0,0,50,2893.46,2689.17)">
                        <path d="M0.326,-0.676l-0,0.542c-0,0.04 0.001,0.066 0.005,0.078c0.004,0.011 0.011,0.02 0.023,0.027c0.011,0.007 0.029,0.011 0.054,0.011l0.015,-0l0,0.018l-0.348,0l-0,-0.018l0.017,-0c0.029,-0 0.049,-0.003 0.061,-0.01c0.012,-0.006 0.02,-0.015 0.024,-0.027c0.004,-0.011 0.007,-0.038 0.007,-0.079l-0,-0.344c-0,-0.03 -0.002,-0.049 -0.005,-0.057c-0.003,-0.008 -0.008,-0.014 -0.016,-0.019c-0.008,-0.006 -0.017,-0.008 -0.028,-0.008c-0.016,-0 -0.037,0.005 -0.06,0.015l-0.009,-0.017l0.244,-0.112l0.016,0Z" style="fill:#3b3b3b;fill-rule:nonzero;"/>
                    </g>
                    <g transform="matrix(50,0,0,50,2930.96,2689.17)">
                        <rect x="-0.008" y="-0.261" width="0.516" height="0.059" style="fill:#3b3b3b;fill-rule:nonzero;"/>
                    </g>
                    <g transform="matrix(50,0,0,50,2955.96,2689.17)">
                        <path d="M0.326,-0.676l-0,0.542c-0,0.04 0.001,0.066 0.005,0.078c0.004,0.011 0.011,0.02 0.023,0.027c0.011,0.007 0.029,0.011 0.054,0.011l0.015,-0l0,0.018l-0.348,0l-0,-0.018l0.017,-0c0.029,-0 0.049,-0.003 0.061,-0.01c0.012,-0.006 0.02,-0.015 0.024,-0.027c0.004,-0.011 0.007,-0.038 0.007,-0.079l-0,-0.344c-0,-0.03 -0.002,-0.049 -0.005,-0.057c-0.003,-0.008 -0.008,-0.014 -0.016,-0.019c-0.008,-0.006 -0.017,-0.008 -0.028,-0.008c-0.016,-0 -0.037,0.005 -0.06,0.015l-0.009,-0.017l0.244,-0.112l0.016,0Z" style="fill:#3b3b3b;fill-rule:nonzero;"/>
                    </g>
                    <g transform="matrix(50,0,0,50,2993.46,2689.17)">
                        <path d="M0.326,-0.676l-0,0.542c-0,0.04 0.001,0.066 0.005,0.078c0.004,0.011 0.011,0.02 0.023,0.027c0.011,0.007 0.029,0.011 0.054,0.011l0.015,-0l0,0.018l-0.348,0l-0,-0.018l0.017,-0c0.029,-0 0.049,-0.003 0.061,-0.01c0.012,-0.006 0.02,-0.015 0.024,-0.027c0.004,-0.011 0.007,-0.038 0.007,-0.079l-0,-0.344c-0,-0.03 -0.002,-0.049 -0.005,-0.057c-0.003,-0.008 -0.008,-0.014 -0.016,-0.019c-0.008,-0.006 -0.017,-0.008 -0.028,-0.008c-0.016,-0 -0.037,0.005 -0.06,0.015l-0.009,-0.017l0.244,-0.112l0.016,0Z" style="fill:#3b3b3b;fill-rule:nonzero;"/>
                    </g>
                    <g transform="matrix(50,0,0,50,3018.46,2689.17)">
                        <path d="M0.229,-0.662l0,0.845l-0.196,-0l-0,-0.019l0.022,0c0.021,0 0.036,-0.002 0.043,-0.006c0.007,-0.005 0.013,-0.011 0.017,-0.02c0.003,-0.009 0.005,-0.029 0.005,-0.062l0,-0.631c0,-0.031 -0.001,-0.049 -0.002,-0.053c-0.003,-0.012 -0.008,-0.02 -0.016,-0.026c-0.008,-0.006 -0.024,-0.009 -0.047,-0.009l-0.022,0l-0,-0.019l0.196,-0Z" style="fill:#3b3b3b;fill-rule:nonzero;"/>
                    </g>
                </g>
                <g transform="matrix(0.514542,0,0,0.605072,1096.53,565.951)">
                    <g transform="matrix(50,0,0,50,2876.81,2689.17)">
                        <path d="M0.104,0.183l0,-0.845l0.197,-0l-0,0.02l-0.022,0c-0.022,0 -0.036,0.003 -0.043,0.007c-0.008,0.004 -0.013,0.011 -0.017,0.02c-0.004,0.008 -0.006,0.029 -0.006,0.062l0,0.63c0,0.031 0.001,0.049 0.002,0.054c0.003,0.012 0.009,0.02 0.017,0.026c0.008,0.005 0.023,0.008 0.047,0.008l0.022,0l-0,0.018l-0.197,-0Z" style="fill:#3b3b3b;fill-rule:nonzero;"/>
                    </g>
                    <g transform="matrix(50,0,0,50,2893.46,2689.17)">
                        <path d="M0.326,-0.676l-0,0.542c-0,0.04 0.001,0.066 0.005,0.078c0.004,0.011 0.011,0.02 0.023,0.027c0.011,0.007 0.029,0.011 0.054,0.011l0.015,-0l0,0.018l-0.348,0l-0,-0.018l0.017,-0c0.029,-0 0.049,-0.003 0.061,-0.01c0.012,-0.006 0.02,-0.015 0.024,-0.027c0.004,-0.011 0.007,-0.038 0.007,-0.079l-0,-0.344c-0,-0.03 -0.002,-0.049 -0.005,-0.057c-0.003,-0.008 -0.008,-0.014 -0.016,-0.019c-0.008,-0.006 -0.017,-0.008 -0.028,-0.008c-0.016,-0 -0.037,0.005 -0.06,0.015l-0.009,-0.017l0.244,-0.112l0.016,0Z" style="fill:#3b3b3b;fill-rule:nonzero;"/>
                    </g>
                    <g transform="matrix(50,0,0,50,2930.96,2689.17)">
                        <path d="M0.463,-0.331c0,0.066 -0.009,0.128 -0.027,0.185c-0.012,0.035 -0.026,0.064 -0.045,0.086c-0.019,0.023 -0.04,0.041 -0.064,0.054c-0.024,0.013 -0.049,0.02 -0.077,0.02c-0.032,-0 -0.061,-0.008 -0.087,-0.025c-0.026,-0.016 -0.048,-0.039 -0.068,-0.07c-0.015,-0.022 -0.027,-0.051 -0.038,-0.088c-0.014,-0.05 -0.021,-0.101 -0.021,-0.154c0,-0.072 0.01,-0.138 0.03,-0.198c0.017,-0.05 0.042,-0.088 0.076,-0.115c0.034,-0.027 0.07,-0.04 0.108,-0.04c0.038,0 0.074,0.013 0.107,0.04c0.034,0.026 0.058,0.061 0.074,0.105c0.021,0.061 0.032,0.128 0.032,0.2Zm-0.15,-0.001c-0,-0.116 -0.001,-0.183 -0.002,-0.203c-0.003,-0.045 -0.011,-0.076 -0.023,-0.091c-0.009,-0.011 -0.022,-0.016 -0.04,-0.016c-0.014,-0 -0.025,0.004 -0.033,0.012c-0.012,0.011 -0.02,0.031 -0.025,0.06c-0.004,0.029 -0.006,0.129 -0.006,0.301c0,0.094 0.003,0.157 0.01,0.189c0.005,0.023 0.012,0.038 0.021,0.046c0.009,0.008 0.021,0.012 0.036,0.012c0.016,0 0.028,-0.005 0.037,-0.016c0.013,-0.018 0.021,-0.046 0.023,-0.084l0.002,-0.21Z" style="fill:#3b3b3b;fill-rule:nonzero;"/>
                    </g>
                    <g transform="matrix(50,0,0,50,2968.46,2689.17)">
                        <rect x="-0.008" y="-0.261" width="0.516" height="0.059" style="fill:#3b3b3b;fill-rule:nonzero;"/>
                    </g>
                    <g transform="matrix(50,0,0,50,2993.46,2689.17)">
                        <path d="M0.326,-0.676l-0,0.542c-0,0.04 0.001,0.066 0.005,0.078c0.004,0.011 0.011,0.02 0.023,0.027c0.011,0.007 0.029,0.011 0.054,0.011l0.015,-0l0,0.018l-0.348,0l-0,-0.018l0.017,-0c0.029,-0 0.049,-0.003 0.061,-0.01c0.012,-0.006 0.02,-0.015 0.024,-0.027c0.004,-0.011 0.007,-0.038 0.007,-0.079l-0,-0.344c-0,-0.03 -0.002,-0.049 -0.005,-0.057c-0.003,-0.008 -0.008,-0.014 -0.016,-0.019c-0.008,-0.006 -0.017,-0.008 -0.028,-0.008c-0.016,-0 -0.037,0.005 -0.06,0.015l-0.009,-0.017l0.244,-0.112l0.016,0Z" style="fill:#3b3b3b;fill-rule:nonzero;"/>
                    </g>
                    <g transform="matrix(50,0,0,50,3018.46,2689.17)">
                        <path d="M0.229,-0.662l0,0.845l-0.196,-0l-0,-0.019l0.022,0c0.021,0 0.036,-0.002 0.043,-0.006c0.007,-0.005 0.013,-0.011 0.017,-0.02c0.003,-0.009 0.005,-0.029 0.005,-0.062l0,-0.631c0,-0.031 -0.001,-0.049 -0.002,-0.053c-0.003,-0.012 -0.008,-0.02 -0.016,-0.026c-0.008,-0.006 -0.024,-0.009 -0.047,-0.009l-0.022,0l-0,-0.019l0.196,-0Z" style="fill:#3b3b3b;fill-rule:nonzero;"/>
                    </g>
                </g>
                <g transform="matrix(0.514542,0,0,0.605072,465.675,968.211)">
                    <g transform="matrix(50,0,0,50,2889.31,2689.17)">
                        <path d="M0.104,0.183l0,-0.845l0.197,-0l-0,0.02l-0.022,0c-0.022,0 -0.036,0.003 -0.043,0.007c-0.008,0.004 -0.013,0.011 -0.017,0.02c-0.004,0.008 -0.006,0.029 -0.006,0.062l0,0.63c0,0.031 0.001,0.049 0.002,0.054c0.003,0.012 0.009,0.02 0.017,0.026c0.008,0.005 0.023,0.008 0.047,0.008l0.022,0l-0,0.018l-0.197,-0Z" style="fill:#3b3b3b;fill-rule:nonzero;"/>
                    </g>
                    <g transform="matrix(50,0,0,50,2905.96,2689.17)">
                        <path d="M0.326,-0.676l-0,0.542c-0,0.04 0.001,0.066 0.005,0.078c0.004,0.011 0.011,0.02 0.023,0.027c0.011,0.007 0.029,0.011 0.054,0.011l0.015,-0l0,0.018l-0.348,0l-0,-0.018l0.017,-0c0.029,-0 0.049,-0.003 0.061,-0.01c0.012,-0.006 0.02,-0.015 0.024,-0.027c0.004,-0.011 0.007,-0.038 0.007,-0.079l-0,-0.344c-0,-0.03 -0.002,-0.049 -0.005,-0.057c-0.003,-0.008 -0.008,-0.014 -0.016,-0.019c-0.008,-0.006 -0.017,-0.008 -0.028,-0.008c-0.016,-0 -0.037,0.005 -0.06,0.015l-0.009,-0.017l0.244,-0.112l0.016,0Z" style="fill:#3b3b3b;fill-rule:nonzero;"/>
                    </g>
                    <g transform="matrix(50,0,0,50,2943.46,2689.17)">
                        <path d="M0.326,-0.676l-0,0.542c-0,0.04 0.001,0.066 0.005,0.078c0.004,0.011 0.011,0.02 0.023,0.027c0.011,0.007 0.029,0.011 0.054,0.011l0.015,-0l0,0.018l-0.348,0l-0,-0.018l0.017,-0c0.029,-0 0.049,-0.003 0.061,-0.01c0.012,-0.006 0.02,-0.015 0.024,-0.027c0.004,-0.011 0.007,-0.038 0.007,-0.079l-0,-0.344c-0,-0.03 -0.002,-0.049 -0.005,-0.057c-0.003,-0.008 -0.008,-0.014 -0.016,-0.019c-0.008,-0.006 -0.017,-0.008 -0.028,-0.008c-0.016,-0 -0.037,0.005 -0.06,0.015l-0.009,-0.017l0.244,-0.112l0.016,0Z" style="fill:#3b3b3b;fill-rule:nonzero;"/>
                    </g>
                    <g transform="matrix(50,0,0,50,2980.96,2689.17)">
                        <path d="M0.326,-0.676l-0,0.542c-0,0.04 0.001,0.066 0.005,0.078c0.004,0.011 0.011,0.02 0.023,0.027c0.011,0.007 0.029,0.011 0.054,0.011l0.015,-0l0,0.018l-0.348,0l-0,-0.018l0.017,-0c0.029,-0 0.049,-0.003 0.061,-0.01c0.012,-0.006 0.02,-0.015 0.024,-0.027c0.004,-0.011 0.007,-0.038 0.007,-0.079l-0,-0.344c-0,-0.03 -0.002,-0.049 -0.005,-0.057c-0.003,-0.008 -0.008,-0.014 -0.016,-0.019c-0.008,-0.006 -0.017,-0.008 -0.028,-0.008c-0.016,-0 -0.037,0.005 -0.06,0.015l-0.009,-0.017l0.244,-0.112l0.016,0Z" style="fill:#3b3b3b;fill-rule:nonzero;"/>
                    </g>
                    <g transform="matrix(50,0,0,50,3005.96,2689.17)">
                        <path d="M0.229,-0.662l0,0.845l-0.196,-0l-0,-0.019l0.022,0c0.021,0 0.036,-0.002 0.043,-0.006c0.007,-0.005 0.013,-0.011 0.017,-0.02c0.003,-0.009 0.005,-0.029 0.005,-0.062l0,-0.631c0,-0.031 -0.001,-0.049 -0.002,-0.053c-0.003,-0.012 -0.008,-0.02 -0.016,-0.026c-0.008,-0.006 -0.024,-0.009 -0.047,-0.009l-0.022,0l-0,-0.019l0.196,-0Z" style="fill:#3b3b3b;fill-rule:nonzero;"/>
                    </g>
                </g>
                <g transform="matrix(0.514542,0,0,0.605072,465.675,565.951)">
                    <g transform="matrix(50,0,0,50,2876.81,2689.17)">
                        <path d="M0.104,0.183l0,-0.845l0.197,-0l-0,0.02l-0.022,0c-0.022,0 -0.036,0.003 -0.043,0.007c-0.008,0.004 -0.013,0.011 -0.017,0.02c-0.004,0.008 -0.006,0.029 -0.006,0.062l0,0.63c0,0.031 0.001,0.049 0.002,0.054c0.003,0.012 0.009,0.02 0.017,0.026c0.008,0.005 0.023,0.008 0.047,0.008l0.022,0l-0,0.018l-0.197,-0Z" style="fill:#3b3b3b;fill-rule:nonzero;"/>
                    </g>
                    <g transform="matrix(50,0,0,50,2893.46,2689.17)">
                        <path d="M0.326,-0.676l-0,0.542c-0,0.04 0.001,0.066 0.005,0.078c0.004,0.011 0.011,0.02 0.023,0.027c0.011,0.007 0.029,0.011 0.054,0.011l0.015,-0l0,0.018l-0.348,0l-0,-0.018l0.017,-0c0.029,-0 0.049,-0.003 0.061,-0.01c0.012,-0.006 0.02,-0.015 0.024,-0.027c0.004,-0.011 0.007,-0.038 0.007,-0.079l-0,-0.344c-0,-0.03 -0.002,-0.049 -0.005,-0.057c-0.003,-0.008 -0.008,-0.014 -0.016,-0.019c-0.008,-0.006 -0.017,-0.008 -0.028,-0.008c-0.016,-0 -0.037,0.005 -0.06,0.015l-0.009,-0.017l0.244,-0.112l0.016,0Z" style="fill:#3b3b3b;fill-rule:nonzero;"/>
                    </g>
                    <g transform="matrix(50,0,0,50,2930.96,2689.17)">
                        <rect x="-0.008" y="-0.261" width="0.516" height="0.059" style="fill:#3b3b3b;fill-rule:nonzero;"/>
                    </g>
                    <g transform="matrix(50,0,0,50,2955.96,2689.17)">
                        <path d="M0.326,-0.676l-0,0.542c-0,0.04 0.001,0.066 0.005,0.078c0.004,0.011 0.011,0.02 0.023,0.027c0.011,0.007 0.029,0.011 0.054,0.011l0.015,-0l0,0.018l-0.348,0l-0,-0.018l0.017,-0c0.029,-0 0.049,-0.003 0.061,-0.01c0.012,-0.006 0.02,-0.015 0.024,-0.027c0.004,-0.011 0.007,-0.038 0.007,-0.079l-0,-0.344c-0,-0.03 -0.002,-0.049 -0.005,-0.057c-0.003,-0.008 -0.008,-0.014 -0.016,-0.019c-0.008,-0.006 -0.017,-0.008 -0.028,-0.008c-0.016,-0 -0.037,0.005 -0.06,0.015l-0.009,-0.017l0.244,-0.112l0.016,0Z" style="fill:#3b3b3b;fill-rule:nonzero;"/>
                    </g>
                    <g transform="matrix(50,0,0,50,2993.46,2689.17)">
                        <path d="M0.463,-0.331c0,0.066 -0.009,0.128 -0.027,0.185c-0.012,0.035 -0.026,0.064 -0.045,0.086c-0.019,0.023 -0.04,0.041 -0.064,0.054c-0.024,0.013 -0.049,0.02 -0.077,0.02c-0.032,-0 -0.061,-0.008 -0.087,-0.025c-0.026,-0.016 -0.048,-0.039 -0.068,-0.07c-0.015,-0.022 -0.027,-0.051 -0.038,-0.088c-0.014,-0.05 -0.021,-0.101 -0.021,-0.154c0,-0.072 0.01,-0.138 0.03,-0.198c0.017,-0.05 0.042,-0.088 0.076,-0.115c0.034,-0.027 0.07,-0.04 0.108,-0.04c0.038,0 0.074,0.013 0.107,0.04c0.034,0.026 0.058,0.061 0.074,0.105c0.021,0.061 0.032,0.128 0.032,0.2Zm-0.15,-0.001c-0,-0.116 -0.001,-0.183 -0.002,-0.203c-0.003,-0.045 -0.011,-0.076 -0.023,-0.091c-0.009,-0.011 -0.022,-0.016 -0.04,-0.016c-0.014,-0 -0.025,0.004 -0.033,0.012c-0.012,0.011 -0.02,0.031 -0.025,0.06c-0.004,0.029 -0.006,0.129 -0.006,0.301c0,0.094 0.003,0.157 0.01,0.189c0.005,0.023 0.012,0.038 0.021,0.046c0.009,0.008 0.021,0.012 0.036,0.012c0.016,0 0.028,-0.005 0.037,-0.016c0.013,-0.018 0.021,-0.046 0.023,-0.084l0.002,-0.21Z" style="fill:#3b3b3b;fill-rule:nonzero;"/>
                    </g>
                    <g transform="matrix(50,0,0,50,3018.46,2689.17)">
                        <path d="M0.229,-0.662l0,0.845l-0.196,-0l-0,-0.019l0.022,0c0.021,0 0.036,-0.002 0.043,-0.006c0.007,-0.005 0.013,-0.011 0.017,-0.02c0.003,-0.009 0.005,-0.029 0.005,-0.062l0,-0.631c0,-0.031 -0.001,-0.049 -0.002,-0.053c-0.003,-0.012 -0.008,-0.02 -0.016,-0.026c-0.008,-0.006 -0.024,-0.009 -0.047,-0.009l-0.022,0l-0,-0.019l0.196,-0Z" style="fill:#3b3b3b;fill-rule:nonzero;"/>
                    </g>
                </g>
            </g>
        </g>
    </g>
</svg>
